darbeev.mitsucko,fohoqomo316mariyapita,Мицуко,Дарбеев,3,620000,2016-06-29 04:26:59 +0500
drigayuk,viktoriakiss55Angelika98,Траян,Дригаюк,3,620000,2016-06-29 04:29:46 +0500
naberkutniy,sasha1111196lentya89,Валидия,Наберкутный,3,620000,2016-06-29 04:31:17 +0500
badekin.dilbar,ay13un57iValerii269,Дильбар,Бадекин,3,620000,2016-06-29 04:33:18 +0500
yasshckoi.fia,TRCPCIl8alex_opt_1983,Фиа,Ясшкой,3,620000,2016-06-29 04:34:19 +0500
tsebkov,moskaslon2azamat123480,Аджи-келди,Цебков,3,620000,2016-06-29 04:35:00 +0500
jentomirov.zaria,stydentka19Nikon609,Зария,Жентомиров,3,620000,2016-06-29 04:35:41 +0500
zavazun.joya,xJ6bePh6wasdf123758,Джоя,Завазун,3,620000,2016-06-29 04:36:34 +0500
abulhamidov,prinsessssssINVES,Шиана,Абулхамидов,3,620000,2016-06-29 04:37:17 +0500
fanitsshtein.hotz,ulia209557vovaket,Хоц,Фаницштейн,3,620000,2016-06-29 04:38:08 +0500
iing.magotskaya,technik321muha250296muhal,Йинг,Магоцкая,3,620000,2016-06-29 04:38:55 +0500
jozef.vawilychev,sv007kanata4011992,Йозеф,Вавилычев,3,620000,2016-06-29 04:39:37 +0500
evtunovitch.tasnima,g1elhfemlp5htovvak7777777777,Таснима,Евтунович,3,620000,2016-06-29 04:40:24 +0500
tsarinyak.anber,beaty84galina120577,Анбер,Цариняк,3,620000,2016-06-29 04:41:14 +0500
andria.hawronyuck,SERGEIPOPOVICSCHbteptink99,Андрия,Хавронюк,3,620000,2016-06-29 04:41:54 +0500
dakus.leili,jxuddm1uv89gvlad1q2w3e4r5t,Лейли,Дакус,3,620000,2016-06-29 04:42:34 +0500
lupta.artymizia,sRs74CTGN5cuerth1984,Артымизия,Лупта,3,620000,2016-06-29 04:43:26 +0500
palichev.munazzaf,Spectra777Emil123456,Муназзаф,Паличев,3,620000,2016-06-29 04:43:59 +0500
alexandra-ganna.zavolynitch,knarikmagoian1997yangtzee14,Александра-ганна,Заволынич,3,620000,2016-06-29 04:44:33 +0500
sabinetsky,Ra1N1msb1329,Даниила-евгения,Сабинецкий,3,620000,2016-06-29 04:45:13 +0500
roristiven.lakosnik,ZabololotskixannacoFiqOWeZUG25,Рори Стивен,Лакоснык,3,620000,2016-06-29 04:45:46 +0500
danaile.endzak,vanuavelikiiBosyak4444,Эндзак,Данаиле,3,620000,2016-06-29 04:46:31 +0500
gaskira.yurkanskii-rurin,APOLUCHOtekaterinat,Гаскира,Юрканский-Рурин,3,620000,2016-06-29 04:47:17 +0500
seit-nur-ali.yamaguti,l1e2n0a3abwartenundteetrinken,Сеит-нур-али,Ямагути,3,620000,2016-06-29 04:47:52 +0500
junaina.kazyuta,v7jtc4jrsj_b1a4,Джунайна,Казюта,3,620000,2016-06-29 04:48:27 +0500
smirenkin.tami,federyakentania638,Тами,Смиренкин,3,620000,2016-06-29 04:49:06 +0500
eirena.pakalin,stasian_80freedomconnect,Эйрена,Пакалин,3,620000,2016-06-29 04:49:41 +0500
anudj.ivanovsky,vita1201tatyana_zarovnyatnyh,Анудж,Ивановский,3,620000,2016-06-29 04:50:36 +0500
stepanya2016,olga_rjurikovnazanuci73,Степаня,Валичева,3,620000,2016-06-29 04:51:15 +0500
abazkuliev.amoreta,hakers_kgmaria_4umak,Аморета,Абазкулиев,3,620000,2016-06-29 04:52:01 +0500
afanina.evstrikova,saunalath1zahar_031193,Афанина,Евстрикова,3,620000,2016-06-29 04:52:40 +0500
iondoz.eliberate,kolyannk_777mawka88,Йондоз,Елиберате,3,620000,2016-06-29 04:53:14 +0500
sheldon.mazhurniy,faykova_a_afruitball99,Шелдон,Мажурный,3,620000,2016-06-29 04:53:59 +0500
heritiana2017,uilb4d0dc330cfhnfr,Херитиана,Уржумчев,3,620000,2016-06-29 04:54:38 +0500
fahriev.daneta,kane_mstuma_cat,Данета,Фахриев,3,620000,2016-06-29 04:55:25 +0500
tavile.tchildem,dfd75351gtx1231,Чилдем,Тавиле,3,620000,2016-06-29 04:56:05 +0500
lagos.tchebaturov,kJyT19R6colncesvetik15,Лагос,Чебатуров,3,620000,2016-06-29 04:56:55 +0500
yurints.renady,sanek80mateslipridetzima,Ренадий,Юринц,3,620000,2016-06-29 04:58:22 +0500
rudaschchenko.metodi,african666vash131,Методи,Рудашченко,3,620000,2016-06-29 04:59:02 +0500
elegya.mishatin,vityha27bkbnf555,Элегия,Мищатин,3,620000,2016-06-29 05:00:00 +0500
nazaru.liberti,KissfmMixpaxtakorhayoti,Либерти,Назару,3,620000,2016-06-29 05:01:14 +0500
inkise,a9038230151konstantin20001,Айжанар,Ынкисэ,3,620000,2016-06-29 05:02:03 +0500
ezenschtein.leilana,mikinik3bodrych,Лейлана,Езенштейн,3,620000,2016-06-29 05:02:53 +0500
anmar.vavzhishin,Zarna4youchrist1978,Анмар,Вавжишин,3,620000,2016-06-29 05:03:38 +0500
buromenskaya.abdulmezhit,nguybrvd04miss2010ya,Абдулмежит,Буроменская,3,620000,2016-06-29 05:04:59 +0500
eiman.gulkai,tivmarculesticharlawx0ri,Гулькай,Ейман,3,620000,2016-06-29 05:05:51 +0500
talambutse,sdfdfvxdv_xdvxvxAnipimiWYMUf8,Тревон,Таламбуцэ,3,620000,2016-06-29 05:06:30 +0500
allison.toderese,AHUJEgAWY82TYUjhg123,Аллисон,Тодересе,3,620000,2016-06-29 05:07:39 +0500
sigrid.izzetov,dmitriy_borisazywvq,Сигрид,Иззетов,3,620000,2016-06-29 05:08:18 +0500
fandikov.kaspar,telo005barney76,Каспар,Фандиков,3,620000,2016-06-29 05:08:56 +0500
alachka.shudruk,julia_iziTorgovk1992,Алачка,Щудрук,3,620000,2016-06-29 05:09:32 +0500
bozhena.maznaya,EZyVInuXiBi71bratzv8,Божена,Мазная,3,620000,2016-06-29 05:10:06 +0500
yurita.sheladonowa,canello2bubaberd,Юрита,Щеладонова,3,620000,2016-06-29 05:10:50 +0500
zinovida.yulinov,gramashhukbcASi3QPGf,Зиновида,Юлинов,3,620000,2016-06-29 05:11:34 +0500
zainutrin.iashpolski,chelnymanRedbul_94,Зайнутрин,Иашполски,3,620000,2016-06-29 05:12:15 +0500
asfam.tchanbaish,x19101997ivancheg_30,Асфам,Чанбайш,3,620000,2016-06-29 05:12:54 +0500
pazyan.zhorzhika,galiev58artem240379,Жоржика,Пазян,3,620000,2016-06-29 05:13:39 +0500
laido.avaz,got2424alexeym16,Аваз,Лайдо,3,620000,2016-06-29 05:14:18 +0500
yuzhin.saidsaleh,tarabanmakskiskagood,Саид Салех,Южин,3,620000,2016-06-29 05:14:59 +0500
yat4yck.jokhar,chere22mowaa,Джохар,Ятчык,3,620000,2016-06-29 05:15:45 +0500
kazacki.maryan-adam,masiany2003TIHON1986I,Марян-адам,Казаки,3,620000,2016-06-29 05:16:32 +0500
sergiush.ekaterini4ev,bahmatski1993mn321mn,Сергиуш,Екатериничев,3,620000,2016-06-29 05:17:17 +0500
machlyud,syroegin82vazin_ivan,Сияна,Мачлюд,3,620000,2016-06-29 05:17:56 +0500
jakubchuk.garei,mopachanovabillchik_19,Гарей,Якубчук,3,620000,2016-06-29 05:18:27 +0500
iguchi.abriell,zivarsnatasha379379379,Абриелль,Игучи,3,620000,2016-06-29 05:19:06 +0500
metlok.tsepalin,balexey2007opelastra747,Мэтлок,Цепалин,3,620000,2016-06-29 05:19:45 +0500
likerya.nagly,Karkavin62ilya_hbs,Ликеря,Наглий,3,620000,2016-06-29 05:20:32 +0500
abdulgaziev.afandy,omePiqiSorIV23ogordnik_sv,Афанды,Абдулгазиев,3,620000,2016-06-29 05:21:12 +0500
delorya.ermambetov,september0985Slipknot1551,Делория,Эрмамбетов,3,620000,2016-06-29 05:21:55 +0500
ama.misashenko,koshka_kwlme7013,Ама,Мисащенко,3,620000,2016-06-29 05:22:40 +0500
fateeva-hlopkova.geda,Smuggy_88Valeria1996w,Гэда,Фатеева-Хлопкова,3,620000,2016-06-29 05:23:22 +0500
shanni.mazanikov,nokia123686qwesadsaxzxczcxzc,Шанни,Мазаников,3,620000,2016-06-29 05:23:57 +0500
ulishencko.jamaika,xw4n8z7gpolishucknatasha,Джамайка,Улишенко,3,620000,2016-06-29 05:25:03 +0500
oxion.yarovataya,maks38442mechfactory,Оксён,Яроватая,3,620000,2016-06-29 05:26:11 +0500
dagozher.luchano,fokinamarinatoril1983,Лучано,Дагожер,3,620000,2016-06-29 05:26:50 +0500
egnazarova.oniska,adinochka26geras86,Ониска,Егназарова,3,620000,2016-06-29 05:27:39 +0500
uchnegov.aleleta,Jagodka2705grthdkwhd,Алелета,Учнегов,3,620000,2016-06-29 05:28:30 +0500
lamochkin.taurin,sanktpeterburg59viper_8888,Таурин,Ламочкин,3,620000,2016-06-29 05:29:10 +0500
lager.lisafeta,eldartimirbaevmargosha_31,Лисафета,Лагер,3,620000,2016-06-29 05:29:50 +0500
elagina-gladyschev,remizzz87fedotov_roma,Евтеций,Елагина-Гладышев,3,620000,2016-06-29 05:30:32 +0500
jevje.savirina,maxditaovalkiria666,Жевье,Савирина,3,620000,2016-06-29 05:31:14 +0500
zhabotinsk.panfnuty,lolomanovqwerty1_22,Панфнутий,Жаботинск,3,620000,2016-06-29 05:31:54 +0500
bozhaya.shona,n2uj9hslcf33jnlipvk4wb,Шона,Божая,3,620000,2016-06-29 05:32:35 +0500
arnoldas.babochiev,ehm8v2gw4dnurzhan_1966,Арнольдас,Бабочиев,3,620000,2016-06-29 05:33:14 +0500
tchebulkoff,vmk4478178vitalii_granyuko,Новомира,Чебульков,3,620000,2016-06-29 05:34:05 +0500
gnytkina.gulzhanat,prihodkosergei1988me43351,Гульжанат,Гныткина,3,620000,2016-06-29 05:34:45 +0500
odzema.gasimya,ankmedanirina20102109,Гасимя,Одзема,3,620000,2016-06-29 05:35:26 +0500
havvo2017,Xthtgrjd44yfljtksIXEnuHYtIWu41,Хавво,Вальнев,3,620000,2016-06-29 05:36:08 +0500
feania.ba-atef,reshetkin50o3hfalbikey,Феания,Ба-Атеф,3,620000,2016-06-29 05:36:52 +0500
tchus.patraev,shedevrplusVIKTOR_PRAPOR,Чус,Патраев,3,620000,2016-06-29 05:37:39 +0500
clara-zhuzhanna.babekailo,kade97_97igor_zaseev_1981,Клара-жужанна,Бабекайло,3,620000,2016-06-29 05:38:19 +0500
radashuk.jadira,bandit8080klas2klas,Джадира,Радащук,3,620000,2016-06-29 05:39:27 +0500
anuschevyan.lazorkin,zaka398devchenki2010,Анущевян,Лазоркин,3,620000,2016-06-29 05:40:07 +0500
tchebeneev,evstinadifln15gjkz,Кри,Чебенеев,3,620000,2016-06-29 05:40:58 +0500
ivonya.nazarchikova,passport441matvey644,Ивония,Назарчикова,3,620000,2016-06-29 05:41:39 +0500
geraisa.abelyar,evg_8115Nomtik,Гераиса,Абеляр,3,620000,2016-06-29 05:42:18 +0500
apanat.mazniy,pastaman_Dtnhjdf123456,Апанат,Мазный,3,620000,2016-06-29 05:43:02 +0500
kaduchack.ivanna-nelya,sn0wwhitecupvk_90864363,Иванна-неля,Кадучак,3,620000,2016-06-29 05:43:47 +0500
stavra.nadamshin,HENRYCLUBiirbiipinklove,Ставра,Надамшин,3,620000,2016-06-29 05:44:27 +0500
razhova.aloida,cfgjhnathvs4aiya_net,Алоида,Ражова,3,620000,2016-06-29 05:45:28 +0500
utyupenko.kredula,y16wed3gr29hBila12,Кредула,Утюпенко,3,620000,2016-06-29 05:46:04 +0500
evrosenkov.veliyulla,Logos_Aidlenie_adzhisalieva,Велиюлла,Евросенков,3,620000,2016-06-29 05:46:55 +0500
erijepoff,dasdadadsddddAnyaChugunova,Абульваит,Эриджепов,3,620000,2016-06-29 05:47:34 +0500
radeny,Nadezda_6704cy98q8nPf6uU,Миколамарфа,Радений,3,620000,2016-06-29 05:48:19 +0500
aridina.yanushpelskaya,xsen1Fresh_Armani_666,Аридина,Янушпельская,3,620000,2016-06-29 05:49:04 +0500
edlenko.glorioza,irina050488deselek,Глориоза,Едленко,3,620000,2016-06-29 05:49:43 +0500
vahak.gavshinskij,pali666vk_101618730,Вахак,Гавшинский,3,620000,2016-06-29 05:50:35 +0500
renni.havemann,nataanddimaAzot17,Ренни,Хавеманн,3,620000,2016-06-29 05:51:11 +0500
urdya.tanzhelia,jesse1977GapaXYfyfed48,Танжелия,Урдя,3,620000,2016-06-29 05:52:13 +0500
val4yukas.fatih,kvu633s7rxb92canekv12345,Фатих,Вальчюкас,3,620000,2016-06-29 05:53:04 +0500
sal.poliert,wcw86uwrtbdkaple9224,Полиерт,Сал,3,620000,2016-06-29 05:53:48 +0500
polinarda.tanzer,yd156756r0sck0ztpu2gsx,Полинарда,Танзер,3,620000,2016-06-29 05:54:34 +0500
amstislav.lagoran,NSanzharevskiyjaroslavrudenko,Амстислав,Лагоран,3,620000,2016-06-29 05:55:18 +0500
zhenikoi.ganlina,aleksandrov19951996pen6jabs,Ганлина,Женикой,3,620000,2016-06-29 05:55:54 +0500
yazwinski.atchesherfe,islam_djdgjagjp,Атчешерфе,Язвински,3,620000,2016-06-29 05:56:43 +0500
kiricka.lamtyugova,q080619922010qmar0101,Кирика,Ламтюгова,3,620000,2016-06-29 05:57:48 +0500
fastashenko,elviraumagushenatopten47,Насиха,Фастащенко,3,620000,2016-06-29 05:58:54 +0500
olvian2017,beiobragin_163selass22,Ольвиан,Яцкул,3,620000,2016-06-29 05:59:40 +0500
itka.ushimko,maksimvseWoodbrook1,Итка,Ушимко,3,620000,2016-06-29 06:00:33 +0500
danilovna.ilsyuya,dmitrii6855isi1,Ильсюя,Даниловна,3,620000,2016-06-29 06:01:43 +0500
gizel.haio,QQEKabff65g5e,Гизель,Хаио,3,620000,2016-06-29 06:02:23 +0500
kailin.scheglanov,kowitupa368romansinovich,Кайлин,Щегланов,3,620000,2016-06-29 06:03:24 +0500
shaihitdinova.rozalya-klara,leha_spinovsvetozar_62,Розалия-клара,Шайхитдинова,3,620000,2016-06-29 06:04:04 +0500
arubika.valegurova,orion5004tvgidearh2,Арубика,Валегурова,3,620000,2016-06-29 06:04:39 +0500
yuzel.bappar,RaushSelene2606,Баппар,Юзел,3,620000,2016-06-29 06:05:17 +0500
babyachenko.eljidrisi,KTIRF2004sfk6d9,Эль Идриси,Бабьяченко,3,620000,2016-06-29 06:06:03 +0500
jasuarev,vtn2009diogmiin_83,Жюльен,Ясуарев,3,620000,2016-06-29 06:06:52 +0500
uzumja.darbasheva,angryzombieariadnagotfesalu,Узумджа,Дарбашева,3,620000,2016-06-29 06:07:30 +0500
ustymets.nionella,mama150178dr_ospanova,Нионелла,Устымец,3,620000,2016-06-29 06:08:09 +0500
bazilevsky.zhaki,padlonokjaroslava_121,Жаки,Базилевский,3,620000,2016-06-29 06:08:47 +0500
yutkis,Vova1488Leno4ka_kol4ina,Биджой,Юткис,3,620000,2016-06-29 06:09:28 +0500
babashkov.avasherfa,sisa061109AFSANA,Авашерфа,Бабашков,3,620000,2016-06-29 06:10:08 +0500
djeinai.radoshewskaya,Lerka_aka_MalyshYuli911,Джэйнай,Радошевская,3,620000,2016-06-29 06:10:56 +0500
bringelda.zavulunova,cmwp65brasvet,Брингельда,Завулунова,3,620000,2016-06-29 06:12:29 +0500
dorta.ekimtseva,sekretno69nursulu_alteeva63,Дорта,Екимцева,3,620000,2016-06-29 06:13:15 +0500
obidivskij,KareenaKapoor01OlgaRilskaya,Деврония,Обидивский,3,620000,2016-06-29 06:13:54 +0500
faterin.masrur,daniilcin22101985clubnika89026566061,Масрур,Фатерин,3,620000,2016-06-29 06:14:38 +0500
schiskan.nadezhda-sofia,xh607iklo141194,Надежда-софия,Шискан,3,620000,2016-06-29 06:15:18 +0500
ernando.madara,c3a1t20aparovich86,Мадара,Эрнандо,3,620000,2016-06-29 06:16:09 +0500
yakab.radzeh,i7raw5walexeinem,Якаб,Радзех,3,620000,2016-06-29 06:16:51 +0500
yaschinsckov.nalatia,LilyBunnyUfemElALO4,Налатия,Яшинсков,3,620000,2016-06-29 06:17:34 +0500
udoltsev2017,valeriyahylozaqutichka5,Ибтихадж,Удольцев,3,620000,2016-06-29 06:18:15 +0500
eedit2016,shasta767Kobchenko,Ээдит,Цереш-Трохимчук,3,620000,2016-06-29 06:18:52 +0500
abu-zeid.afta,Y5RO1Mmvsan_vashalomidze,Афта,Абу-Зейд,3,620000,2016-06-29 06:19:30 +0500
agu.magekas,BUENOS_777tumanov42,Агу,Магекас,3,620000,2016-06-29 06:20:23 +0500
nagailisov.marielena,jan3lrltliudka,Мариелена,Нагаилисов,3,620000,2016-06-29 06:21:08 +0500
abit.tchapyg,fain07Nadya10194,Абит,Чапыг,3,620000,2016-06-29 06:21:50 +0500
uporencko,paula_babyxf0xtr0t,Фисалия,Упоренко,3,620000,2016-06-29 06:22:33 +0500
ivantsiv-gusak.ira-anna,elmar5828729LIMON002,Ира-анна,Иванцив-Гусак,3,620000,2016-06-29 06:23:13 +0500
nyazik.iashnoldski,Ae571Flv8fhornygoats,Нязик,Иашнолдски,3,620000,2016-06-29 06:23:53 +0500
blyumke.ranella,WoldemarBOXdima_yazkov,Ранелла,Блюмке,3,620000,2016-06-29 06:24:31 +0500
shaimhamatova,masson16aleksaanuf74,Олина,Шаимхаматова,3,620000,2016-06-29 06:25:20 +0500
tchevykaloff.angerika,scriv99soldatenkoraya,Ангерика,Чевыкалов,3,620000,2016-06-29 06:26:33 +0500
kazlan.annett-kristina,Omeol2009italianec198,Аннетт-кристина,Казлан,3,620000,2016-06-29 06:27:12 +0500
yanshewski,anna_m93serb_1988,Сигния,Яншевски,3,620000,2016-06-29 06:27:54 +0500
sibgatulla.abramova-larichkin,HunXteRAngeloza,Сибгатулла,Абрамова-Ларичкин,3,620000,2016-06-29 06:28:39 +0500
madzalevsky,dimonndsiet111,Кадрамида,Мадзалевский,3,620000,2016-06-29 06:29:18 +0500
razilia.mazihina,omenrus48Kyrsor85,Разилия,Мазихина,3,620000,2016-06-29 06:29:57 +0500
filiz.labuni,V80936256801Simple_me_again,Филиз,Лабуни,3,620000,2016-06-29 06:30:41 +0500
rainitch.carislav,ergei1815rjnjgtc86,Карислав,Раинич,3,620000,2016-06-29 06:31:15 +0500
stahei.magdi,sheclarahelp_me_i_am_blond,Стахей,Магди,3,620000,2016-06-29 06:31:56 +0500
zagoskina.agamirza,taylorhamil8btoizMfm,Агамирза,Загоськина,3,620000,2016-06-29 06:32:34 +0500
tchalgiji.tolga,ullduzartomka52,Толга,Чалгиджи,3,620000,2016-06-29 06:33:19 +0500
gurimat.bagaviev,dahamelnuktrading06,Гуримат,Багавиев,3,620000,2016-06-29 06:33:56 +0500
famyshin.orrik,klioc1envylope2,Оррик,Фамышин,3,620000,2016-06-29 06:34:37 +0500
tszaj,twenty4karsen_nagornyh,Бёрч,Цзай,3,620000,2016-06-29 06:35:18 +0500
adeya.mazlumova,Nina_chaikaGucieva,Адея,Мазлумова,3,620000,2016-06-29 06:35:59 +0500
daramanchev.agleya,Verooka2011kozlovozmeat,Аглея,Дараманчев,3,620000,2016-06-29 06:37:15 +0500
vakulenko-gegel,verrechat16cnhfgjy1111,Галина-любовь,Вакуленко-Гегель,3,620000,2016-06-29 06:38:01 +0500
shlihten.adykham,bardykinsergejjekabgatyreva,Адыхам,Шлихтен,3,620000,2016-06-29 06:38:36 +0500
smilyakov.una,fakelura294f8g2zlpw,Уна,Смиляков,3,620000,2016-06-29 06:39:11 +0500
florans.shabunina,afret2_afretstreetdianov,Флоранс,Шабунина,3,620000,2016-06-29 06:39:59 +0500
shamsia.palazhchin,fishkairrfilouiluyhklyg,Шамсия,Палажчин,3,620000,2016-06-29 06:40:35 +0500
tambur.aris,A_S_Glazkoffusticiadon,Арис,Тамбур,3,620000,2016-06-29 06:41:19 +0500
ekbaum.azeta,phMHcKL0torsten_heine,Азета,Екбаум,3,620000,2016-06-29 06:41:58 +0500
paveleeva,zf7fvpysrespect95_08,Зульхая,Павелеева,3,620000,2016-06-29 06:42:33 +0500
zagrivenko.skilling,Kseniya_pichuginkarabara91,Скиллинг,Загривенко,3,620000,2016-06-29 06:43:14 +0500
karacha.palamel,d5zhzd27qq04znenver_86,Карача,Паламел,3,620000,2016-06-29 06:43:59 +0500
mauguda2016,man4anyxic5mtzycu,Маугуда,Яряцратий,3,620000,2016-06-29 06:44:53 +0500
lelde.uvenchikova,dnkrfmqktqmm1iv5555525,Лелде,Увенчикова,3,620000,2016-06-29 06:45:30 +0500
mazhyko,kogaevmeile12,Васманна,Мажыко,3,620000,2016-06-29 06:46:13 +0500
akemi.madrona,Maksyanova93dante1901,Акеми,Мадрона,3,620000,2016-06-29 06:46:59 +0500
tsabe-ryaboff.arturi,burah021oowned30,Артури,Цабе-Рябов,3,620000,2016-06-29 06:47:43 +0500
razuvaeva-danilova.jilli,rhLvfA0utewa_is_raya,Джилли,Разуваева-Данилова,3,620000,2016-06-29 06:48:23 +0500
radzevilo.ierax,driaeva85KYGOzECICEN51,Иеракс,Радзевило,3,620000,2016-06-29 06:49:03 +0500
suhy.tchewganyuk,cntgf654toryhom,Сухий,Чевганюк,3,620000,2016-06-29 06:50:13 +0500
sadadil.emerzian,wuepkf276893drozhzheedova_ta,Сададил,Эмерзиян,3,620000,2016-06-29 06:50:48 +0500
uskalova,Slivin2008merkens123,Юрал,Ускалова,3,620000,2016-06-29 06:51:26 +0500
milashcka.valenkina,grisha5049Ivanovqy,Милашка,Валенкина,3,620000,2016-06-29 06:52:32 +0500
tsagaan2016,maxxtron_kripibich,Цагаан,Райнхорт,3,620000,2016-06-29 06:53:12 +0500
gajdamana.aisel,kuznetzoffvictorsergei10987,Айсель,Гайдамана,3,620000,2016-06-29 06:54:04 +0500
yasfina.hamadalina,igorveprincevjapgtam,Ясфина,Хамадалина,3,620000,2016-06-29 06:54:36 +0500
nazarishina.elionora,Marat_17_paintedsoopersoup5,Елионора,Назарищина,3,620000,2016-06-29 06:55:29 +0500
tsvikl,Diamond14legenda0165,Хелки,Цвикл,3,620000,2016-06-29 06:56:19 +0500
gaifman,inna140695ksanchik_19,Техожит,Гаифман,3,620000,2016-06-29 06:56:55 +0500
damiat.usyokov,j7a2m9i0eDEMON640810,Дамиат,Усёков,3,620000,2016-06-29 06:57:38 +0500
ivanna-tetyana2017,biofilterzelenskay1989,Иванна-тетяна,Фаркош,3,620000,2016-06-29 06:58:19 +0500
faliuskin.bai,mityai095dsnz1991,Бай,Фалюскин,3,620000,2016-06-29 06:59:30 +0500
elizavetta.magardichev,dbnz1003valamane125,Елизаветта,Магардичев,3,620000,2016-06-29 07:00:10 +0500
yasipenko,empcempc1Jcincera,Идалия,Ясипенко,3,620000,2016-06-29 07:00:51 +0500
sadovaya-kwitcka.danuta-vanda,Marixa77777vk_142329148,Данута-ванда,Садовая-Квитка,3,620000,2016-06-29 07:01:37 +0500
yunoscheviy,dieeichefggtnbno,Сантина,Юношевый,3,620000,2016-06-29 07:02:17 +0500
selimhan.yavoronskaya,vel196817Felex33,Селимхан,Яворонская,3,620000,2016-06-29 07:03:02 +0500
eliesh,pushaaa7prue000,Иоанна-мария,Елиеш,3,620000,2016-06-29 07:03:51 +0500
zhemma.emiraliev,fsdvgvokc1971,Жемма,Эмиралиев,3,620000,2016-06-29 07:04:23 +0500
udalaya.eufemia,vahag_dlaro4kav,Евфемия,Удалая,3,620000,2016-06-29 07:05:44 +0500
tito.gazhnuk,motogp5Andrea_9,Тито,Гажнук,3,620000,2016-06-29 07:06:35 +0500
arshalus.yuste,qtodhbjx88rusya_28,Аршалусь,Юсте,3,620000,2016-06-29 07:07:15 +0500
azhela.zhenev,barni99batie08,Ажела,Женев,3,620000,2016-06-29 07:07:54 +0500
ekomom,prosto_vikteacar,Джессика,Екомом,3,620000,2016-06-29 07:08:33 +0500
inez.zholobnyak,SSS242pleshanov29,Инез,Жолобняк,3,620000,2016-06-29 07:09:13 +0500
oksana-klementina.iovback,KLINOVASHAKERBOSStg68,Оксана-клементина,Йовбак,3,620000,2016-06-29 07:09:47 +0500
zavornitsina.urainab,Tatkaabkaimre1,Урайнаб,Заворницина,3,620000,2016-06-29 07:10:33 +0500
hamattah,D995454anya8920102010,Афия,Хаматтах,3,620000,2016-06-29 07:11:12 +0500
havvo.yamanda,Sopljakova230680a132j81c,Хавво,Яманда,3,620000,2016-06-29 07:12:07 +0500
arlempia.tsesyar,i_kacharavasasssasass,Арлемпия,Цесяр,3,620000,2016-06-29 07:13:11 +0500
labovko.adilfat,Morrisadionavaj13,Адильфат,Лабовко,3,620000,2016-06-29 07:13:51 +0500
labunov.podaroktalant,pirogoffkypovuh,"подарок, талант",Лабунов,3,620000,2016-06-29 07:14:29 +0500
schaihraziev.leanna,serg251083hlrpqfcn84,Леанна,Шайхразиев,3,620000,2016-06-29 07:15:24 +0500
shamorgin.maroslava,noa2008aiv_rudi,Марослава,Шаморгин,3,620000,2016-06-29 07:16:10 +0500
zavnyagina.milda,id91352307sinndianakoval93,Милда,Завнягина,3,620000,2016-06-29 07:16:49 +0500
izadan.elizaveta-gizel,kolumbus100kuderaldyn,Елизавета-гизел,Изадан,3,620000,2016-06-29 07:17:29 +0500
grinada.likonova,mfwigphn1574653lynitari,Гринада,Ликонова,3,620000,2016-06-29 07:18:10 +0500
zhackibaev,d1xm5o3zb701zwcleekatrine,Адекунле,Жакибаев,3,620000,2016-06-29 07:18:51 +0500
loly.schadruhin,giannakis4444killlera,Лолий,Шадрухин,3,620000,2016-06-29 07:19:37 +0500
ida-ibolya.ajaparov,fil741pazderinmisha,Ида-иболя,Аджапаров,3,620000,2016-06-29 07:20:22 +0500
abdel.bahtiana,mmu14686megguchia,Бахтиана,Абдель,3,620000,2016-06-29 07:21:03 +0500
vaisma2016,ikomaNUXu10shaxsoda2010,Зиновия-дария,Вайсма,3,620000,2016-06-29 07:21:45 +0500
abibit.yudelevichi,dsxrfermiloff2,Абибит,Юделевичи,3,620000,2016-06-29 07:22:20 +0500
ano.lavrinovskaja,KiKEREFYtIp29oc2008mabo,Ано,Лавриновская,3,620000,2016-06-29 07:23:13 +0500
utenov.nasrullo,kaduy76gly092417,Насрулло,Утенов,3,620000,2016-06-29 07:23:58 +0500
slavozar.abiulaev,amendagegicelenaustyukova,Славозар,Абиулаев,3,620000,2016-06-29 07:24:37 +0500
savotjev.iebedi,mama15072003Telo_unikalnoe,Йебеди,Савотьев,3,620000,2016-06-29 07:25:22 +0500
pazlieva.ligia,rita88tvoyatamaramed29,Лигия,Пазлиева,3,620000,2016-06-29 07:26:01 +0500
ivanna-hristina.ukolov,cevb_84inuki87,Иванна-христина,Уколов,3,620000,2016-06-29 07:26:40 +0500
diomeda.gavrulenok,zalinka24makskondrusov,Диомеда,Гавруленок,3,620000,2016-06-29 07:27:15 +0500
razumovaja.seishas,valera_s01mindikhan,Сейшас,Разумовая,3,620000,2016-06-29 07:28:20 +0500
sabilovitch,dashutka2915Federastina,Ретель,Сабилович,3,620000,2016-06-29 07:29:01 +0500
iskra.byan,d19821111nadjauvar,Искра,Бянь,3,620000,2016-06-29 07:29:42 +0500
irestina.mutylo,edn1976saldoris,Ирестина,Мутыло,3,620000,2016-06-29 07:30:35 +0500
ladyra.yulidia,ann787898avtoprodamkiev,Юлидия,Ладыра,3,620000,2016-06-29 07:31:22 +0500
gaidachenko.baihan,irastupinapany_monika,Байхан,Гайдаченко,3,620000,2016-06-29 07:32:00 +0500
abliamitov.raisa-rena,cemjrctaranmaks,Раиса-рена,Аблиамитов,3,620000,2016-06-29 07:32:46 +0500
larisa-oxana.umlev,ujhfgbkmyfz1mezy_2004,Лариса-оксана,Умлев,3,620000,2016-06-29 07:33:30 +0500
ovaschmyan,Ygancev150sikost28,Фисалия,Овашмян,3,620000,2016-06-29 07:34:08 +0500
vainshen,alekseisnetkovmitkoijeni1,Кучбика,Вайншен,3,620000,2016-06-29 07:34:53 +0500
gaidorov.zhannetta,XAKER696ayan180,Жаннетта,Гаидоров,3,620000,2016-06-29 07:35:32 +0500
selivonchik.arsina,gravotcoman1982xIwYY4ppXb,Арсина,Селивончик,3,620000,2016-06-29 07:36:19 +0500
ilfat.nadulitch,xi5sbqo77phzvovruda91poltava,Ильфат,Надулич,3,620000,2016-06-29 07:37:02 +0500
ragutsky.ireneo,tigerlili17MarcoHilleke,Иренео,Рагуцкий,3,620000,2016-06-29 07:37:41 +0500
valoveliski,emoboylove2008olshevsky_aleksa,Вечислав,Валовелиски,3,620000,2016-06-29 07:38:27 +0500
zagola.oma,fuckfackvssvdima,Ома,Загола,3,620000,2016-06-29 07:39:12 +0500
yarysko,s1a9r7a7MM8KHhBqgcjt,Петрунея,Ярысько,3,620000,2016-06-29 07:40:01 +0500
endryuleonard.palichi,arzkovmuxasuk18,Эндрю Леонард,Паличи,3,620000,2016-06-29 07:40:41 +0500
erika-elizaveta.mashakina,Tatyanagruzdevakqmxw4pt,Эрика-елизавета,Машакина,3,620000,2016-06-29 07:41:36 +0500
leonkadia.elitzur,qweasdxc137alinochka91,Леонкадия,Елицур,3,620000,2016-06-29 07:42:10 +0500
pavarenkova.opra,dakk771inomrasulov,Опра,Паваренкова,3,620000,2016-06-29 07:42:55 +0500
tavil.urzhan,cfylhfcyvashkin94,Уржан,Тавил,3,620000,2016-06-29 07:43:31 +0500
indiana.abdulrahmanov,lena_mingajevae4587,Индиана,Абдулрахманов,3,620000,2016-06-29 07:44:06 +0500
obozhor,Jorik2113julia_galynka,Нурайнат,Обожор,3,620000,2016-06-29 07:44:49 +0500
akelina.landik,alexcandermengcs109028,Акелина,Ландик,3,620000,2016-06-29 07:45:32 +0500
kazakudereb4inski.ester-malka,juss240892team187,Естер-малка,Казакудеребчински,3,620000,2016-06-29 07:46:15 +0500
anemona.yarulova,nsozzyQuigley19,Анемона,Ярулова,3,620000,2016-06-29 07:46:49 +0500
yuma4ikov.antai,xilluminati1xNarkoZZ2006,Антай,Юмачиков,3,620000,2016-06-29 07:47:29 +0500
fabulist.ellikonida,c1aodamehuderyconufes,Элликонида,Фабулист,3,620000,2016-06-29 07:48:09 +0500
emcheva,doinikova73olekssi_rissch,Пада,Эмчева,3,620000,2016-06-29 07:48:44 +0500
randolf.abelman,VKhoroshikhSabishka2012,Рандольф,Абельман,3,620000,2016-06-29 07:49:33 +0500
shagowal.jahanara,sharasorinfernogrey1975,Джаханара,Шаговал,3,620000,2016-06-29 07:50:19 +0500
ionaida.zavyazalova,Tutanhamonchiknzdajk85,Ионайда,Завязалова,3,620000,2016-06-29 07:51:15 +0500
mini.tchebotaryuk,XsiI2hdbtLK0tohsieoj,Мини,Чеботарюк,3,620000,2016-06-29 07:51:53 +0500
vavriniv.rafail,tam11937gigi05,Рафаил,Вавринив,3,620000,2016-06-29 07:52:43 +0500
zadvorochnov2017,pupanbdviza1603,Арияда,Задворочнов,3,620000,2016-06-29 07:53:23 +0500
erdni-goryaev.ilgina,alesis_qssirgei321,Ильгина,Эрдни-Горяев,3,620000,2016-06-29 07:54:08 +0500
kelgen.fedzin,nastyafomina2011volkhvalova,Кэлгэн,Федзин,3,620000,2016-06-29 07:54:53 +0500
tetei.babarikina,OnegramMonetin,Тетей,Бабарикина,3,620000,2016-06-29 07:55:34 +0500
gyaska.diomeda,sage27lazzaronimino,Диомеда,Гяска,3,620000,2016-06-29 07:56:18 +0500
gulyana2017,pivovarovayukrash_95,Гульяна,Овсиюк,3,620000,2016-06-29 07:57:23 +0500
elizade.vitin,Pankovk_3001ysyi7,Витин,Элизаде,3,620000,2016-06-29 07:58:05 +0500
salomonida.shegolyonok,yuraGRasd123JKL,Саломонида,Щеголёнок,3,620000,2016-06-29 07:58:51 +0500
ushakova-mavromati.zaitun,blkdimond77akbaa,Зайтун,Ушакова-Мавромати,3,620000,2016-06-29 07:59:27 +0500
shugi.hlatjeva,mapkobkihvalerijak85,Шуги,Хлатьева,3,620000,2016-06-29 08:00:18 +0500
uais.mavzyutov,mizhurina_lyubovkrkwgklto84,Уаис,Мавзютов,3,620000,2016-06-29 08:01:12 +0500
lenda.gaikoviy,l4390485igorbivol,Ленда,Гайковый,3,620000,2016-06-29 08:01:51 +0500
zelman.ueskis,Saktaganwerewolf0605,Зельман,Уескис,3,620000,2016-06-29 08:02:38 +0500
haiduku.kason,ksenia_golubeva73nen1985,Касон,Хайдуку,3,620000,2016-06-29 08:03:17 +0500
shetinskaya.alinna,sonyrxd7rainie11,Алинна,Щетинская,3,620000,2016-06-29 08:03:56 +0500
sharnetta.osman,vkungurcevamilakaizer,Шарнетта,Осман,3,620000,2016-06-29 08:04:31 +0500
sherpi.arnisa,andruxossdeutsherman09,Арниса,Шэрпи,3,620000,2016-06-29 08:05:12 +0500
alipy.shablovsky,graki1919tazic083,Алипий,Щабловский,3,620000,2016-06-29 08:05:57 +0500
zuzannya.shekatunov,voli228suffocate,Зузання,Щекатунов,3,620000,2016-06-29 08:06:47 +0500
gainulin.rimma,fenix1601narokina2221,Римма,Гаинулин,3,620000,2016-06-29 08:07:27 +0500
faltoshener,tdudovaUliana_ksl,Гаджи-бала-оглы,Фалтошенер,3,620000,2016-06-29 08:08:14 +0500
gavve.fenella,Vitys94nyu57xxt,Фенелла,Гавве,3,620000,2016-06-29 08:08:57 +0500
ovushenko,s9039090980yv5xmokuj5rgxzf0gpryqj5t,Флэннери,Овушенко,3,620000,2016-06-29 08:10:04 +0500
tchinatsu.tsaraeva,ahkmerovamaxim_shabalov,Чинацу,Цараева,3,620000,2016-06-29 08:10:48 +0500
agagusein.uglikov,nastja19900apps49,Агагусейн,Угликов,3,620000,2016-06-29 08:11:37 +0500
eligurt.filagria,dimagoycarnabik,Филагрия,Элигурт,3,620000,2016-06-29 08:12:22 +0500
zaryana.abalevitch,alex_Kodenin7777,Заряна,Абалевич,3,620000,2016-06-29 08:13:13 +0500
fallarini,sistemnui_blok1995touon,Мазори,Фалларини,3,620000,2016-06-29 08:13:58 +0500
dominisya.lyuster,dia3540pulsar_vv,Доминисия,Люстер,3,620000,2016-06-29 08:14:43 +0500
milyana.talmann,sasyk0tony00ol,Миляна,Тальманн,3,620000,2016-06-29 08:15:28 +0500
seiednader.zhazhick,F8K9TRCTQB9D0FYJDolevasv,Сейэд Надер,Жажик,3,620000,2016-06-29 08:16:09 +0500
rajvinder,deadsoldnerLayra_20,Чэнэл,Раджвиндер,3,620000,2016-06-29 08:16:50 +0500
cazak.serbenyuck,Dobr_777_dlykirinaisergey2007,Казак,Сербенюк,3,620000,2016-06-29 08:17:39 +0500
schchevchuk.sizif,saddsddsasdsadDraguns123,Сизиф,Шчевчук,3,620000,2016-06-29 08:18:26 +0500
otyuzsky.elda,abricos_10MEIOM,Элда,Отюзский,3,620000,2016-06-29 08:19:32 +0500
yurynsky.kadiim,maltsevalililepatov55,Кадиим,Юрынский,3,620000,2016-06-29 08:20:07 +0500
venimila.shabaldashniy,yulkamgavdei2004,Венимила,Шабалдашный,3,620000,2016-06-29 08:20:44 +0500
fardpur.rahmonjon,galina_gavrilinayaboidee1994,Рахмонджон,Фардпур,3,620000,2016-06-29 08:21:25 +0500
anulya.gadlevski,demonbestxatoqira271,Ануля,Гадлевски,3,620000,2016-06-29 08:22:18 +0500
olfat.dzzhamiter,mihel13jekolia,Дзжамитр,Олфат,3,620000,2016-06-29 08:23:07 +0500
pelogeya.tseranyuk,ladyinwhite0duos200909,Пелогея,Церанюк,3,620000,2016-06-29 08:23:47 +0500
donskii-shakhmai.antseta,stas7654andrei_lozin,Анцета,Донский-Шахмай,3,620000,2016-06-29 08:24:27 +0500
shepetinshikov.yani,bleubird6ghbdtndbrf2442,Яни,Щепетинщиков,3,620000,2016-06-29 08:25:26 +0500
albia.langadi,nnz84telecom1980,Альбия,Лангади,3,620000,2016-06-29 08:26:00 +0500
loriona.urosheva,jfj39xh4belykhjulia,Лориона,Урошева,3,620000,2016-06-29 08:26:32 +0500
ibdaluev.daibat,avtonomik_88dresotry601,Дайбат,Ибдалуев,3,620000,2016-06-29 08:27:12 +0500
tanashishena.durri,lost352619zuhriveseli,Дурри,Танащишена,3,620000,2016-06-29 08:27:51 +0500
ibdaluev.aamira,lakers362tanchavlas,Аамира,Ибдалуев,3,620000,2016-06-29 08:28:26 +0500
tchakar.basila,Sexmalufegulic987,Басила,Чакар,3,620000,2016-06-29 08:29:16 +0500
alberta.zagulinov,SOBAKALIZAsandro06660,Альберта,Загулинов,3,620000,2016-06-29 08:29:55 +0500
taburchyanu,pyslarengel_magdalena,Пэл,Табурчяну,3,620000,2016-06-29 08:30:45 +0500
ionela.yangicher,jC123pkmalcevvtljj,Ионэла,Янгичер,3,620000,2016-06-29 08:31:19 +0500
shaabani.muzhda,freek_05viberti,Мужда,Шаабани,3,620000,2016-06-29 08:32:06 +0500
mechcka.yun,slavnaia1lesnik_70,Мечка,Юн,3,620000,2016-06-29 08:32:50 +0500
rabus.antonya,bnu7LNcm50sKZhappydes1011,Антоня,Рабус,3,620000,2016-06-29 08:33:29 +0500
rejina.obshivalova,pioneo_filostrato9297Devorce,Реджина,Обшивалова,3,620000,2016-06-29 08:34:18 +0500
fatkullova.edita-irina,tsyganovawnataljasitnikova,Едита-ирина,Фаткуллова,3,620000,2016-06-29 08:35:03 +0500
uorkmen,shefb3xotyjugu141,Фагима,Уоркмен,3,620000,2016-06-29 08:35:52 +0500
galsira2016,GAM2108c49fbe161e,Галсира,Валычко,3,620000,2016-06-29 08:36:31 +0500
zagola.lado,mY97w8W4NSMRvvladvlad987,Ладо,Загола,3,620000,2016-06-29 08:37:03 +0500
altia.yurniv,e6viktoriy1688denisshumik,Алтия,Юрнив,3,620000,2016-06-29 08:37:44 +0500
talmanov.uriil,gusianes5632,Уриил,Талманов,3,620000,2016-06-29 08:38:29 +0500
mellori.kazakenkov,puripexdek1951seregabulgak,Мэллори,Казакенков,3,620000,2016-06-29 08:39:39 +0500
rabtsevich-misarosch,ur5ucma0410,Бажена,Рабцевич-Мисарош,3,620000,2016-06-29 08:40:18 +0500
mairkaewa,stimpy27angelpak,Алевгина,Майркаева,3,620000,2016-06-29 08:40:59 +0500
gisam.zavidevkin,mc5xpcaht0j0urs,Гисам,Завидевкин,3,620000,2016-06-29 08:42:02 +0500
zhalobodckin,andreagasivolkrh64si33kjvkl,Авлександр,Жалободкин,3,620000,2016-06-29 08:42:46 +0500
abdelmugit.ulev,Deniza_1katrin7766,Абдельмугит,Улев,3,620000,2016-06-29 08:43:47 +0500
raicho.anait,kisska150598bannyh_np,Анаит,Райчо,3,620000,2016-06-29 08:44:32 +0500
uvakasova.faustina,krohin2011Fv1111,Фаустина,Увакасова,3,620000,2016-06-29 08:45:21 +0500
ivahnina.diziet,vanoksa72dumpling78,Дизиэт,Ивахнина,3,620000,2016-06-29 08:45:56 +0500
culchinko.alinet,NaitmareRustraina786,Алинет,Кулчинко,3,620000,2016-06-29 08:46:27 +0500
schabnam.gudynsky,Lera300dutyhory403,Шабнам,Гудынский,3,620000,2016-06-29 08:47:12 +0500
shotshnaider,desivarnasvetlanakyzn,Гулфия,Шотшнайдер,3,620000,2016-06-29 08:48:01 +0500
sorrell.tsesko,GHD_al_mich,Соррелл,Цеско,3,620000,2016-06-29 08:48:55 +0500
elazin.tchili,AngelMM5932dagred,Чили,Елазин,3,620000,2016-06-29 08:49:45 +0500
tzushkoj.mushrifa,ty168odo9u9utaanett8498,Мушрифа,Цушкой,3,620000,2016-06-29 08:50:26 +0500
yadava.gabral,rm_tihakimovaen,Ядава,Габраль,3,620000,2016-06-29 08:51:04 +0500
amor.palymarchuk,real_boys94lexrafl,Амор,Палымарчук,3,620000,2016-06-29 08:51:52 +0500
avurel.ravenkov,tuladonfc__sm,Авурел,Равенков,3,620000,2016-06-29 08:52:34 +0500
hazbulina.margilya,ustas101tanktatank,Маргиля,Хазбулина,3,620000,2016-06-29 08:53:29 +0500
razinkova.diminika,shayahmetov_30troickiy82,Диминика,Разинькова,3,620000,2016-06-29 08:54:25 +0500
yuzerovitch.maine,realdfgdfgfardent19932708,Майне,Юзерович,3,620000,2016-06-29 08:55:10 +0500
mukaddas.shalobod,FKTYEIRF1221ex4fxuqo1,Мукаддас,Шалобод,3,620000,2016-06-29 08:55:46 +0500
valentovitch.ilia,truviserst1m_43,Илия,Валентович,3,620000,2016-06-29 08:56:21 +0500
gorshenfeld,P6733680dimashmakov1995,Галина-агнеса,Горшенфельд,3,620000,2016-06-29 08:56:58 +0500
razumenko.alampia,kat_semenova41secret31_95,Алампия,Разуменко,3,620000,2016-06-29 08:57:55 +0500
savurenok.dia,viorelborzininessa010575,Диа,Савуренок,3,620000,2016-06-29 08:58:36 +0500
nadyrova.valerina,b8vARIatH1k2ojdblaze,Валерина,Надырова,3,620000,2016-06-29 08:59:31 +0500
yusupovsky2016,tsybulskiijuly280709,Бакар,Юсуповский,3,620000,2016-06-29 09:00:22 +0500
zofya.evsa,prosto360promoparen7,Зофья,Евса,3,620000,2016-06-29 09:01:06 +0500
zhalsanova.adelinia,dfgdgryrhellotaylor,Аделиня,Жалсанова,3,620000,2016-06-29 09:01:44 +0500
byulbyul.daludina,z277164popovich_mariq,Бюльбюль,Далудина,3,620000,2016-06-29 09:02:23 +0500
untipov.isabel,papka4sam5504,Исабель,Унтипов,3,620000,2016-06-29 09:03:12 +0500
tanenko.nikei,b3nt4uomb6qee6,Никей,Таненко,3,620000,2016-06-29 09:04:07 +0500
talpolov,ddffddfalf007alf,Афанисий,Талполов,3,620000,2016-06-29 09:04:47 +0500
gaitus.maazat,kovtunelinaalenka092994,Маазат,Гаитус,3,620000,2016-06-29 09:05:34 +0500
oborchan.dzelde,Linocka2vados_77,Дзелде,Оборчан,3,620000,2016-06-29 09:06:08 +0500
asadollah.bilov,Olga90901Exklysive,Асадоллах,Былов,3,620000,2016-06-29 09:06:48 +0500
edomin.enelya,snangebobmytkjkbf,Енеля,Эдомин,3,620000,2016-06-29 09:08:03 +0500
famelis.izelin,kotodrom2cooperelectro,Изэлин,Фамелис,3,620000,2016-06-29 09:08:38 +0500
filyumina.familskaja,andre777amamfrolov75,Филюмина,Фамильская,3,620000,2016-06-29 09:09:18 +0500
tsapurin.urkiat,v779977ilonaua1,Уркият,Цапурин,3,620000,2016-06-29 09:09:59 +0500
agaveis.poduvaltsev,annakikoliashvili77B_Girl_Funny,Агавейс,Подувальцев,3,620000,2016-06-29 09:10:43 +0500
elbetieva,trisha1986hanif1965,Хумера,Элбетиева,3,620000,2016-06-29 09:11:28 +0500
agrafina.ladugina,lina199212tarulina,Аграфина,Ладугина,3,620000,2016-06-29 09:12:23 +0500
akhziash.shalenik,yfvbyttcnijrjkfldelakruanick,Ахзияш,Шаленик,3,620000,2016-06-29 09:13:12 +0500
feotinya.laikov,k200yura23efdsfdser,Феотинья,Лайков,3,620000,2016-06-29 09:13:51 +0500
delinda.kaduhina,bokserizeaakornev,Делинда,Кадухина,3,620000,2016-06-29 09:14:35 +0500
zagurenko.yaniga,turbonnsdfcsdwerwerw,Янига,Загуренко,3,620000,2016-06-29 09:15:19 +0500
varvara-bogdana.oatikov,koshman_lyudmilaParaDice07,Варвара-богдана,Оатиков,3,620000,2016-06-29 09:16:08 +0500
goran4uk.zeharia,semernina2Thjsgah6,Зехария,Горанчук,3,620000,2016-06-29 09:16:48 +0500
evseljew.bad,z140281alikub,Бад,Евсельев,3,620000,2016-06-29 09:17:22 +0500
topytch.khesus,svebr79amazonca289,Хесус,Топыч,3,620000,2016-06-29 09:18:04 +0500
shebaldnev.leorina,tre1993RAbdrafikov,Леорина,Щебалднев,3,620000,2016-06-29 09:18:49 +0500
blez.tserslav,Irysi4Ka87soniasamue,Блез,Церслав,3,620000,2016-06-29 09:19:46 +0500
marsa.uslov,Gorina9Karina_kress96,Марса,Услов,3,620000,2016-06-29 09:20:38 +0500
tanish.naida-radulyak,nadina06031987sidorova_ss,Таниш,Найда-Радуляк,3,620000,2016-06-29 09:21:12 +0500
zheldar.umila,kcenia_0708Rinat198910,Умила,Желдарь,3,620000,2016-06-29 09:22:20 +0500
tchebanfilip,aiask18aselLoskutovaD,гвоздика,Чебанфилип,3,620000,2016-06-29 09:23:21 +0500
shegoltseva.beverli,kazim3valera_fufel,Беверли,Щегольцева,3,620000,2016-06-29 09:23:56 +0500
radosky.ifrozina,vjiricekmarkglushko,Ифрозина,Радоский,3,620000,2016-06-29 09:24:35 +0500
dabssi.dormedonna,ninet777vse_o_pif,Дормедонна,Дабсси,3,620000,2016-06-29 09:25:14 +0500
hazhigaicheff.sharterika,hosik1970eka13774862,Шартерика,Хажигаичев,3,620000,2016-06-29 09:25:54 +0500
nejma.obtemperanskaya,demibartoktarbek,Нежма,Обтемперанская,3,620000,2016-06-29 09:26:34 +0500
laburkin.tusnelda,sergeiufobatonufodiman5918,Туснельда,Лабуркин,3,620000,2016-06-29 09:27:19 +0500
guljimesh.farohejan,vasili1947_2011koa170,Гулджимеш,Фарохеян,3,620000,2016-06-29 09:28:06 +0500
altan.samonichev,lescha1907BELLAnn,Алтан,Самоничев,3,620000,2016-06-29 09:28:50 +0500
aligan.hrushkewitch,ghjcnj625972vorotnas,Алиган,Хрушкевич,3,620000,2016-06-29 09:29:36 +0500
taberichev,vve1994VitasyaT,Ильямудин,Таберичев,3,620000,2016-06-29 09:30:36 +0500
zoltan-djerd.tanaschencko,milastrebkova91galina31415,Золтан-дьердь,Танасченко,3,620000,2016-06-29 09:31:54 +0500
zhubanysh.razsadnikoff,mama5901Alina5533,Жубаныш,Разсадников,3,620000,2016-06-29 09:32:35 +0500
jeffi.yaltanskaya,lgfbmvme94Ilyukhin,Джеффи,Ялтанская,3,620000,2016-06-29 09:33:14 +0500
eletsk.kion,seritrita2a3172,Кион,Елецк,3,620000,2016-06-29 09:34:04 +0500
neliadi-georgia2017,qH1Df9Y639i7angelbally,Нелияди-георгия,Янибеков,3,620000,2016-06-29 09:34:48 +0500
iellend,bmm1013POTVOTPORT,Айнетул,Йелленд,3,620000,2016-06-29 09:35:36 +0500
sagiryan.taja,maksim198686wedezegi266,Таджа,Сагирян,3,620000,2016-06-29 09:36:20 +0500
birger.urzine,drapovichPashka06,Биргер,Урзине,3,620000,2016-06-29 09:37:22 +0500
terbish.kazurok,Stas4423moudjaidin,Тэрбиш,Казурок,3,620000,2016-06-29 09:38:01 +0500
vajtishkin,viko25pusya1805,Талалей,Вайтишкин,3,620000,2016-06-29 09:38:45 +0500
urbanchik.adyl,kravchuk66MAMRIGI,Адыль,Урбаньчик,3,620000,2016-06-29 09:39:19 +0500
bazar.zavozitch,jc16Lysander1989,Базар,Завозич,3,620000,2016-06-29 09:39:58 +0500
yasnovidskaya.ida-maria,vanya123465g_sidorova,Ида-мария,Ясновидская,3,620000,2016-06-29 09:40:50 +0500
eidenson.zartar,dinapwnzgfbfdfbbbdfbbbgfbgfdbgf,Зартар,Эйденсон,3,620000,2016-06-29 09:41:59 +0500
uzgulem.klpnalan,Milkinkteal483,Узгулем,Клпналан,3,620000,2016-06-29 09:42:44 +0500
ragulchick.bleim,seglovdenisoHeVopEBohi42,Блэйм,Рагульчик,3,620000,2016-06-29 09:43:26 +0500
amjad.sabelfeld,vk_93870660boris949495,Амджад,Сабельфельд,3,620000,2016-06-29 09:44:12 +0500
razdeev,bhbcrf36133613lolokiki123,Иболя Ева,Раздеев,3,620000,2016-06-29 09:44:51 +0500
lazuka.annina,pkbe88z3damiratap1k,Аннина,Лазука,3,620000,2016-06-29 09:45:40 +0500
hotomir2016,lb87hj10k197059nadya04011960,Хотомир,Раздыльская,3,620000,2016-06-29 09:46:15 +0500
pavraz.gulyum,sheeda7Baikervv,Гулюм,Павраз,3,620000,2016-06-29 09:46:54 +0500
arkad.vainboim,punkrockgirlsbuberoski3,Аркад,Вайнбоим,3,620000,2016-06-29 09:47:29 +0500
lavruk-savchuk.ellinka,zhuliya87rfhbyfvbktyf,Эллинка,Лаврук-Савчук,3,620000,2016-06-29 09:48:18 +0500
ogurok.fadie-sherfe,LESSUVgacijyvi148,Фадие-шерфе,Огурок,3,620000,2016-06-29 09:49:06 +0500
eidak-kazush,Anafata160790nbnjhhm,София-тереса,Эйдак-Казуш,3,620000,2016-06-29 09:49:55 +0500
shaimilo.geta,Tigulakov_1997zhensyaoli,Гета,Шаймило,3,620000,2016-06-29 09:50:33 +0500
hairieff.teodosya,ergejloNugY8iVA,Тэодосия,Хайриев,3,620000,2016-06-29 09:51:22 +0500
tantana.ourenkova,mave7734rickkenystas,Тантана,Оуренкова,3,620000,2016-06-29 09:52:03 +0500
naemi.ovepyan,cookiemonstadolboebsuka2009,Наеми,Овепян,3,620000,2016-06-29 09:52:52 +0500
hov.ivanochkin,Doomsday888loter200,Хов,Иваночкин,3,620000,2016-06-29 09:53:36 +0500
rukhshon.gabrinets,psheno_yu574rt6row2r,Рухшон,Габринец,3,620000,2016-06-29 09:54:15 +0500
zabolotnov.iris,tmlm56xcm6fakaD2t,Ирис,Заболотнов,3,620000,2016-06-29 09:54:56 +0500
dorofa.zhagata,vanyapp2coo12385,Дорофа,Жагата,3,620000,2016-06-29 09:55:35 +0500
navrati.osmanabdella,nofear88sexlybly,Осман Абделла,Наврати,3,620000,2016-06-29 09:56:18 +0500
eisaewa.naval,biditbabevf96o5,Навал,Эйсаева,3,620000,2016-06-29 09:57:05 +0500
karmia.uodsvort,novikmovikVstatyukha,Кармия,Уодсворт,3,620000,2016-06-29 09:57:55 +0500
richmal2016,kirillpizbystrova52,Ричмал,Вайшнор,3,620000,2016-06-29 09:58:36 +0500
nik.tamulevitch,mrabieh1pro100_liza,Ник,Тамулевич,3,620000,2016-06-29 09:59:08 +0500
zhedina.viktoria-grita,ssvirskisahmed_doc11,Виктория-грита,Жедина,3,620000,2016-06-29 09:59:47 +0500
awryl.zavershinskaya,dD8pgrDu7oliatch2010,Аврыл,Завершинская,3,620000,2016-06-29 10:00:25 +0500
ihtisham.zavt,bbakytbekv55672,Ихтишам,Завт,3,620000,2016-06-29 10:01:47 +0500
letem.magilentsev,uzumakinarutokonohabarakiFclm46,Лэтэм,Магиленцев,3,620000,2016-06-29 10:02:39 +0500
obydova.sarika,f1naquaGalla_U77,Сарика,Обыдова,3,620000,2016-06-29 10:03:18 +0500
ofik.halko,Arist1993tecktonikstyle,Офик,Халко,3,620000,2016-06-29 10:03:53 +0500
valerianov.beryoza,sways794bendzhamin07,Берёза,Валериянов,3,620000,2016-06-29 10:04:40 +0500
rabanov.janet,x68fpmjvmakar_doluna,Джанет,Рабанов,3,620000,2016-06-29 10:05:21 +0500
sagajdatch,jar4uk19jnyqwxaa97,Нахида,Сагайдач,3,620000,2016-06-29 10:06:04 +0500
raisat.donots,rfn511igor333444,Райсат,Доноц,3,620000,2016-06-29 10:06:48 +0500
sindi.shukrida,timowa77pantera91871,Шукрида,Синди,3,620000,2016-06-29 10:07:18 +0500
yakubtsevitch,pronenkoallarastaman0397,Алеортина,Якубцевич,3,620000,2016-06-29 10:08:10 +0500
talyush,m458y555235,Алию,Талюш,3,620000,2016-06-29 10:09:03 +0500
atitalla.eborovskaya,galya_lisicynaifdkfqckfdbr121962199820112012,Атиталла,Эборовская,3,620000,2016-06-29 10:09:55 +0500
irinei2017,Lyalik73foxxerr,Ириней,Савнявичюс,3,620000,2016-06-29 10:10:40 +0500
elguja.fokus,seikbatlyu050845,Елгуджа,Фокус,3,620000,2016-06-29 10:11:19 +0500
uctam.tchakiryan,sashenkaoxo8rbelovamsfpofvu44,Уктам,Чакирьян,3,620000,2016-06-29 10:11:58 +0500
uzwekov.lurdes,etrusova08belonogovna,Лурдес,Узвеков,3,620000,2016-06-29 10:12:38 +0500
emilina.unchuryan,voroninrustamr7c2suaubbcuo,Емилина,Унчурьян,3,620000,2016-06-29 10:13:11 +0500
eronin.karpyzin,shirhan93elena131173,Эронин,Карпызин,3,620000,2016-06-29 10:13:46 +0500
alifya.betretdinova,EgarlykSVETlushKA,Алифия,Бетретдинова,3,620000,2016-06-29 10:14:20 +0500
tzedrov,dfedorov2007Tany_1958,Вавжентий,Цедров,3,620000,2016-06-29 10:15:04 +0500
pasifaya.abkillmov,ignessbabaled,Пасифая,Абкиллмов,3,620000,2016-06-29 10:15:49 +0500
marxistka.savlepov,bazl05Ritunchic,Марксистка,Савлепов,3,620000,2016-06-29 10:16:29 +0500
isad.evdashuk,forbriana7016181,Исад,Эвдащук,3,620000,2016-06-29 10:17:08 +0500
zhanibeckowa.tsvetodara,pp_Antipovaaldi73,Цветодара,Жанибекова,3,620000,2016-06-29 10:17:47 +0500
nazia.sherbedinskaja,nov1280sonny_sonny,Назия,Щербединская,3,620000,2016-06-29 10:18:27 +0500
feodelena.yurasev,lenkoff28nastya_korevskay,Феоделена,Юрасев,3,620000,2016-06-29 10:19:17 +0500
erenzhinov.gabi,PwlcVkp4nokia3600slade,Габи,Эренжинов,3,620000,2016-06-29 10:20:07 +0500
tchet.cheburyakova,volkalekseiifilipok1987,Чет,Чебурякова,3,620000,2016-06-29 10:20:41 +0500
nagrebetskoj,bilalova_mrazlobqhanidze,Джигер,Нагребецкой,3,620000,2016-06-29 10:21:20 +0500
pailot.dizelya,ulyanahanievaSlimhouse1590,Дизеля,Пайлот,3,620000,2016-06-29 10:22:10 +0500
badernak,denis_zapKris_122,Иболя-эва,Бадернак,3,620000,2016-06-29 10:22:50 +0500
navrotny.tuga,momotdmitrytyurchuk,Туга,Навротний,3,620000,2016-06-29 10:23:54 +0500
gawrishchuk,h6alevtina091990elena19820416,Ванда-мария,Гавришчук,3,620000,2016-06-29 10:24:33 +0500
lakrimosa.pavasaris,trinity_bloodnoscrmom,Лакримоса,Павасарис,3,620000,2016-06-29 10:25:18 +0500
subristik.iskui,sernotjljg5cob,Искуи,Субристик,3,620000,2016-06-29 10:25:51 +0500
ivanitsev.sebrina,m20z24luck_valentina,Себрина,Иваницев,3,620000,2016-06-29 10:26:32 +0500
ashg.ladun,urik_smiletyjopiba189,Ашг,Ладун,3,620000,2016-06-29 10:27:10 +0500
karitina.lainis,LenaInimaregio44,Каритина,Лайнис,3,620000,2016-06-29 10:27:51 +0500
zbigniv2017,fomin_jnuhvitya_atbasar_,Збигнив,Абдулханов,3,620000,2016-06-29 10:28:35 +0500
gavriutchenko,Stas_0108kremisag,Кларида,Гаврютченко,3,620000,2016-06-29 10:29:11 +0500
galchira.paimullin,mokymzinhjeyxc55,Гальчира,Паймуллин,3,620000,2016-06-29 10:30:08 +0500
proboistova.anzhella,veletspbraushant31130,Анжелла,Пробоистова,3,620000,2016-06-29 10:31:35 +0500
ladohin.erasta,taimuraz1973valeria_filinova,Эраста,Ладохин,3,620000,2016-06-29 10:32:38 +0500
yuiulika.dalzhenko,ready09speechazaden1977,Ююлика,Далженко,3,620000,2016-06-29 10:33:18 +0500
gefker.evstomeya,v18091990ameka07,Евстомея,Гефкер,3,620000,2016-06-29 10:33:57 +0500
ackinola.sadovenko-sheiko,nastjadochaywuasevn99,Акинола,Садовенко-Шейко,3,620000,2016-06-29 10:34:36 +0500
yalchik.hadjibei,kalbasa20dinar88888,Хаджибей,Яльчик,3,620000,2016-06-29 10:35:15 +0500
falko.tanri,zenit8080qazQAZwsxWSX,Танри,Фалко,3,620000,2016-06-29 10:36:03 +0500
tsvetkovitch.jalda,isia16ryAWD4HvDb,Ялда,Цветкович,3,620000,2016-06-29 10:36:57 +0500
zdzislava.gazizzyanowa,veretnovichk360500,Здзислава,Газиззянова,3,620000,2016-06-29 10:37:30 +0500
ankilina.gavlichek,limonka0888Kermenl84,Анкилина,Гавличек,3,620000,2016-06-29 10:38:10 +0500
mullagali.pavlushev,mvjhrfhdgbcrockk,Муллагали,Павлушев,3,620000,2016-06-29 10:38:50 +0500
obrug.zhorzhina,teduhyni131yuolukyanchikov,Жоржина,Обруг,3,620000,2016-06-29 10:39:26 +0500
alzam.vailupov,jqlzo4tdihkypets82,Альзам,Вайлупов,3,620000,2016-06-29 10:40:00 +0500
buhro.tsariov,radelh_okalekskruc,Бухро,Цариов,3,620000,2016-06-29 10:40:45 +0500
mohammad.anelka,lll8444ffffff20091996,Анелька,Мохаммад,3,620000,2016-06-29 10:41:24 +0500
savzdarg.evdokia-larisa,robinho_cicimhonatashka_pogorelova,Евдокия-лариса,Савздарг,3,620000,2016-06-29 10:42:18 +0500
ignateko.appolonia,prosto_upunaoksenamyn30,Апполония,Игнатеко,3,620000,2016-06-29 10:43:03 +0500
vineta.zaveivorota,atbol70matz,Винета,Завейворота,3,620000,2016-06-29 10:43:37 +0500
shitsak,procopchikEvgenshik2996,Хазин,Щицак,3,620000,2016-06-29 10:44:19 +0500
palezhnaya.geory,umbrestmaksyutavasilii,Георий,Палежная,3,620000,2016-06-29 10:45:08 +0500
baganin.apalon,GrishnyaMaster3s,Апалон,Баганин,3,620000,2016-06-29 10:45:52 +0500
ovsetsov.marya-barbola,karakartal666andrei_u,Мария-барбола,Овсецов,3,620000,2016-06-29 10:46:30 +0500
sofa.uoll,denic177Aiya29,Софа,Уолл,3,620000,2016-06-29 10:47:14 +0500
izatulin.nuriahanum,fbr_1999Dreemmaster,Нурияханум,Изатулин,3,620000,2016-06-29 10:48:03 +0500
astgik.pazuhanich,stinkums1lfiekzvbkfz,Астгик,Пазуханич,3,620000,2016-06-29 10:48:36 +0500
galimat.yunashka,yulia0403susiesunacerda,Галимат,Юнашка,3,620000,2016-06-29 10:49:10 +0500
afigan.kadzania,asasdcfwewemihalichenkoi,Афиган,Кадзания,3,620000,2016-06-29 10:49:50 +0500
tsonskaya,Cosmik18tali20000,Чика,Тсонская,3,620000,2016-06-29 10:50:27 +0500
tsener.galfinya,alexissexyrazil2512,Гальфиня,Ценер,3,620000,2016-06-29 10:51:06 +0500
jaurski,eurostar36t19521952,Славомира-мария,Яурски,3,620000,2016-06-29 10:51:46 +0500
erogul.llano,lihovaanetaHAMakubagi76,Ллано,Эрогул,3,620000,2016-06-29 10:52:44 +0500
yudaev.vilgelm,ankomstroyguzel181818,Вильгельм,Юдаев,3,620000,2016-06-29 10:53:42 +0500
pavlyashik.diola,te8xf6nk6li41tgwowa25010,Диола,Павляшик,3,620000,2016-06-29 10:54:17 +0500
matryana.gishichi,berserkru3431222AleninaEva1989,Матряна,Гишичи,3,620000,2016-06-29 10:55:02 +0500
estyurk,vitaliclopohaHalk_maks,Раджан Дей,Эстюрк,3,620000,2016-06-29 10:55:56 +0500
savelei.lenora,livlav77faqcmhhu43,Ленора,Савелей,3,620000,2016-06-29 10:56:37 +0500
abdurifi.obuhovsky,xywoxat982VESNA1677,Абдурифи,Обуховский,3,620000,2016-06-29 10:57:16 +0500
irina-miroslava.fassa,cxcbrat97sanek3445,Ирина-мирослава,Фасса,3,620000,2016-06-29 10:58:06 +0500
razlutscka,kristina96_11ozvomoris,Евдинья,Разлуцка,3,620000,2016-06-29 10:58:45 +0500
mavlyudova.sintikhia,Nasturciya86denis_gromou,Синтихия,Мавлюдова,3,620000,2016-06-29 10:59:53 +0500
tamyanskaya.shanelli,macho99993drq777,Шанелли,Тамянская,3,620000,2016-06-29 11:00:47 +0500
luh.lada,nataliakp78fbzgdtmdrp57,Лада,Лух,3,620000,2016-06-29 11:01:32 +0500
meio.ezberov,pygacheva_iralostboys67,Мэйо,Эзберов,3,620000,2016-06-29 11:02:11 +0500
goan.pavenko,gg1j875lbj1rh8gvera66546,Гоан,Павенко,3,620000,2016-06-29 11:02:51 +0500
yaremchyuk.teila,szuuchoksfq1vqpfmjopx,Теила,Яремчюк,3,620000,2016-06-29 11:03:39 +0500
ibryaev.ditza,fairyprincess1u632xj98,Дица,Ибряев,3,620000,2016-06-29 11:04:17 +0500
mirya.pakleva,stella711119jenya13137,Мирия,Паклева,3,620000,2016-06-29 11:05:04 +0500
forvonya.farinyuk,azamat1515fquekz2410198916111965,Форвония,Фаринюк,3,620000,2016-06-29 11:05:41 +0500
ivutkin.azathan,IBAN789Karina1994_02,Азатхан,Ивуткин,3,620000,2016-06-29 11:06:20 +0500
tsvitunenko.martida,Zoath0yeic1950an4ikLife,Мартида,Цвитуненко,3,620000,2016-06-29 11:06:55 +0500
angela-petronel.lamus,dn16421KKondrashoFF,Ангела-петронел,Ламус,3,620000,2016-06-29 11:07:40 +0500
pifia.stotzenko,pallaunnShestokevich,Пифия,Стоценко,3,620000,2016-06-29 11:08:20 +0500
nilevski.arsenoya,glavniyyybbfq9kwe,Арсеноя,Нилевски,3,620000,2016-06-29 11:09:04 +0500
vychechzhanin.admurd,bikucm45139nichuzhkin,Адмурд,Вычечжанин,3,620000,2016-06-29 11:09:42 +0500
darkautsan,belinda01nssn11,Мануил,Даркауцан,3,620000,2016-06-29 11:10:22 +0500
valder.dionisia-vira,adessaamokymai,Дионисия-вира,Валдер,3,620000,2016-06-29 11:11:01 +0500
simcha.pakeliani,shiv8180spk_julya,Симча,Пакелиани,3,620000,2016-06-29 11:11:45 +0500
yanky.botaguz,maxsblokhinhnc83pc6,Ботагуз,Янкы,3,620000,2016-06-29 11:12:27 +0500
abdulhabirova.poni,poorsenokqvrfddvwe,Пони,Абдулхабирова,3,620000,2016-06-29 11:13:06 +0500
niazia.muzenik,nik33205mxxwdaqq50,Ниязия,Музеник,3,620000,2016-06-29 11:14:31 +0500
abrajeichik.kalmina,Nasti4onokNas_09,Кальмина,Абражейчик,3,620000,2016-06-29 11:15:12 +0500
danaida.ablaev,boxnet7ira_bulochnikova,Данаида,Аблаев,3,620000,2016-06-29 11:16:23 +0500
zagrabov.vefrosinia,f432889fshodz,Вефросиния,Заграбов,3,620000,2016-06-29 11:17:09 +0500
halimdarova.anna-nickol,alina12031987tovugyga12345,Анна-николь,Халимдарова,3,620000,2016-06-29 11:18:01 +0500
elovskaya.elif,xarte2011iuebdvkaq8o0,Элиф,Еловськая,3,620000,2016-06-29 11:18:35 +0500
yakowichka,missncm202argenti_art,Лукория,Яковичька,3,620000,2016-06-29 11:19:24 +0500
umurbaev.agratina,sanya_pvlemiliyaxyftotaqi,Агратина,Умурбаев,3,620000,2016-06-29 11:21:11 +0500
achilgul.umelov,whiteknifeustinova0000,Ачилгул,Умелов,3,620000,2016-06-29 11:21:52 +0500
yauro-iglesias,lack7542yqmvwzsq,Хершелл,Яуро-Иглесиас,3,620000,2016-06-29 11:22:31 +0500
kalusch.nika,gellaUWpGubolshakos72xm40ej81tt4t,Ника,Калуш,3,620000,2016-06-29 11:23:16 +0500
elenetsky.frosima,ltdbxmzafvbkbzvfnthbd141169,Фросима,Еленецкий,3,620000,2016-06-29 11:24:01 +0500
valaku.anfim,v2d74clcfagpon_76,Анфим,Валаку,3,620000,2016-06-29 11:24:38 +0500
mazuritskii.gus,bilady28Merassvet,Гус,Мазурицкии,3,620000,2016-06-29 11:25:35 +0500
jaristaev,aneyr3usolnce_luna_naveki,Карли,Яристаев,3,620000,2016-06-29 11:26:14 +0500
kozostrig,krasina1995patr93,Джумабек,Козостриг,3,620000,2016-06-29 11:26:48 +0500
rionata.faleshski,dasichfantastishredroses143,Рионата,Фалешски,3,620000,2016-06-29 11:27:27 +0500
dawnikyants,kharalyonaxym7csaokfl,Ревик,Давникьянц,3,620000,2016-06-29 11:28:04 +0500
shumilin.bazheniy,Sped1234blasadd,Баженый,Щумилин,3,620000,2016-06-29 11:28:49 +0500
nikolinka.taimarowa,vad53092008up_pin,Николинка,Таймарова,3,620000,2016-06-29 11:29:47 +0500
oachinnikova,sveta318mamaDarkArt1988,Ивета,Оачинникова,3,620000,2016-06-29 11:30:26 +0500
obrambalsky.agga,MARKOV_98metallikaassai,Агга,Обрамбальский,3,620000,2016-06-29 11:31:05 +0500
alnora.yakimenchuk,OlgaKras8hannutsutinen,Альнора,Якименчук,3,620000,2016-06-29 11:31:38 +0500
mirna.ragachova,rusalka_7Zaychik_Vanya,Мирна,Рагачова,3,620000,2016-06-29 11:32:24 +0500
paktusova.brid,yrachibiryakanjutar9sM0danilova,Брид,Пактусова,3,620000,2016-06-29 11:33:03 +0500
lazinko.abdumanon,zanadu0981l22880055p,Абдуманон,Лазинько,3,620000,2016-06-29 11:33:38 +0500
gratziella.ravshanova,alenenonok4oksana_viktorovna1973,Грациэлла,Равшанова,3,620000,2016-06-29 11:34:25 +0500
iorsch.takmilya,dunga1nix15,Такмиля,Йорш,3,620000,2016-06-29 11:34:58 +0500
adile.hazyhanova,veps_82chuvak76,Адилэ,Хазыханова,3,620000,2016-06-29 11:35:36 +0500
alaealdin.yanot,anna9375521350dfd4re6r,Алаэ Аль Дин,Янот,3,620000,2016-06-29 11:36:11 +0500
fadya.marziat,afqpth400olgavbkfz,Марзият,Фадя,3,620000,2016-06-29 11:36:47 +0500
norv.azhad,memunto_mori9ziliya555,Ажад,Норв,3,620000,2016-06-29 11:37:39 +0500
lavrentia.pollet,fghghjvbvKate_mamardayska,Лаврентия,Поллет,3,620000,2016-06-29 11:38:51 +0500
razitdinov.teobald,zftrtb60Diavol77785,Теобальд,Разитдинов,3,620000,2016-06-29 11:39:35 +0500
poliekt.gabizullin,Emozhiyamuzikmann1,Полиект,Габизуллин,3,620000,2016-06-29 11:40:14 +0500
yakonits.vyshenega,axanan53kristina2UTY4lazar,Вышенега,Якониц,3,620000,2016-06-29 11:40:54 +0500
sol.abarinov,dp699k38levkus77,Соль,Абаринов,3,620000,2016-06-29 11:41:38 +0500
abderrazzak.shalenok,carioco177sergei_oschepkov,Абдерраззак,Шаленок,3,620000,2016-06-29 11:42:18 +0500
irina-magdalina.valakova,Ritmika39esmady_8212,Ирина-магдалина,Валакова,3,620000,2016-06-29 11:42:53 +0500
albena.zhekunov,u4hd120wnnidmiyevteev2006,Альбена,Жекунов,3,620000,2016-06-29 11:43:33 +0500
gabriela.schavlaev,tgtefdskukla1601,Габриэла,Шавлаев,3,620000,2016-06-29 11:44:14 +0500
irbe.sadovikov,yFYwOWOlA25p477614p,Ирбе,Садовиков,3,620000,2016-06-29 11:45:15 +0500
sarvar.nyachu,svimmisashaabramovna,Сарвар,Нячу,3,620000,2016-06-29 11:45:49 +0500
ukrelov.boyana,amay_282sigmar2004,Бояна,Укрелов,3,620000,2016-06-29 11:46:29 +0500
palantesku,poMaHbI4prok0penko,Альмита,Палантеску,3,620000,2016-06-29 11:47:09 +0500
jizela.yakunenkov,veky_muxkilmas,Жизела,Якуненков,3,620000,2016-06-29 11:47:47 +0500
bozhena-tereza.fan-yung,fenixcd1doiq_94,Божена-тереза,Фан-Юнг,3,620000,2016-06-29 11:48:30 +0500
dobroi.najat,planet_expres007artnat,Доброй,Наджат,3,620000,2016-06-29 11:49:09 +0500
pang.odnesumov,lena060785v1029br,Панг,Однесумов,3,620000,2016-06-29 11:49:47 +0500
egunkov.kami,kjkrefnhjliliya_1998_15,Ками,Егунков,3,620000,2016-06-29 11:50:26 +0500
madadgar.hush,Belkaxxx1995Sviridova_87,Хуш,Мададгар,3,620000,2016-06-29 11:51:00 +0500
dandre.romana-danuta,darishka1995veymelden,Романа-данута,Д'андре,3,620000,2016-06-29 11:51:39 +0500
kenzhesh2017,cjcbcmcjcdjtqIzotova123,Кенжеш,Катюшин,3,620000,2016-06-29 11:52:15 +0500
tugozhir.obenauer,uoiarempaSPUkNUMIv,Тугожир,Обенауэр,3,620000,2016-06-29 11:53:14 +0500
garek.yagorsky,FelixmanPro100kotik,Гарек,Ягорский,3,620000,2016-06-29 11:53:56 +0500
yutana.mazhuk,andryuha160hjjhj_89,Ютана,Мажук,3,620000,2016-06-29 11:54:54 +0500
byadjio.tabakiko,isterikaaa88yakopolina,Бьяджио,Табакико,3,620000,2016-06-29 11:55:33 +0500
daniel.evlasov,aser74f3541md,Даниель,Евласов,3,620000,2016-06-29 11:56:20 +0500
yagshiev.djuni,YdyNuWOkuG92ifbpeucgmalq,Дьюни,Ягшиев,3,620000,2016-06-29 11:57:04 +0500
genadzy2016,akvalex76inna89nbr,Генадзий,Узюмджю,3,620000,2016-06-29 11:57:43 +0500
abalyaninov.gedalya,gaevskaya_irsoxnuta,Гедалья,Абальянинов,3,620000,2016-06-29 11:58:27 +0500
karma.maiorsckih,palomas_31svoychel,Карма,Майорских,3,620000,2016-06-29 11:59:06 +0500
astina.vakeeva,wuxxmuslim0609,Астина,Вакеева,3,620000,2016-06-29 11:59:40 +0500
vanda-yadviga.lamko,sashok0973jabber709,Ванда-ядвига,Ламко,3,620000,2016-06-29 12:00:14 +0500
savugin.arora,kqhzypuuaullenadubinskaya,Арора,Савугин,3,620000,2016-06-29 12:00:53 +0500
valeinia,rus26carsigmachi6,Дилхох,Валейня,3,620000,2016-06-29 12:01:31 +0500
darabal.termell,vetalbublfunked1,Термелл,Дарабал,3,620000,2016-06-29 12:02:06 +0500
yangileeva,Princesska2715dra22kon,Шахинур,Янгилеева,3,620000,2016-06-29 12:02:49 +0500
zholondkowski.boachhan,Otorvushmarina_ussur,Боачхан,Жолондковски,3,620000,2016-06-29 12:03:29 +0500
ideana.valentzovsky,Linara123451C1zcHOfeWL,Идеана,Валенцовский,3,620000,2016-06-29 12:04:04 +0500
faizel.dintoni,Akeeem82natasha_akse_nova,Динтони,Файзель,3,620000,2016-06-29 12:04:44 +0500
buwi.tcheshkovskaja,aleks_sacisergeiwedjaschew,Буви,Чешковская,3,620000,2016-06-29 12:05:24 +0500
irena-anelya.saditov,JulifShipilova13Uektdcrbq,Ирена-анэля,Садитов,3,620000,2016-06-29 12:06:06 +0500
izlamkina,BaQubyTALy12andreakos,Рэйлин,Изламкина,3,620000,2016-06-29 12:06:50 +0500
yneltsarya,ShatilovArtembiskotti,Ришарда-мария,Ынэлцаря,3,620000,2016-06-29 12:07:30 +0500
yasna.aishe,pins92sumerky29,Аише,Ясна,3,620000,2016-06-29 12:08:04 +0500
tchakchurin,djsmile_2011hgfkjhgkdxhj,Ерпасий,Чакчурин,3,620000,2016-06-29 12:08:51 +0500
krouford.danuzhin,kkozarukvvelinova,Кроуфорд,Данужин,3,620000,2016-06-29 12:09:39 +0500
shepanivska.rummana,olkka2xportrz1981,Руммана,Щепанивска,3,620000,2016-06-29 12:10:19 +0500
tchewjuk,machinetimesyslik000,Александр-юлиус,Чевьюк,3,620000,2016-06-29 12:11:03 +0500
savvok.ailita,kebukr49858,Айлита,Саввок,3,620000,2016-06-29 12:11:43 +0500
zhenbei,poopdawg1Efimator01,Вита,Женбей,3,620000,2016-06-29 12:12:26 +0500
elazhenkova.abdulpetta,hinjera13aaaaa,Абдулпетта,Елаженкова,3,620000,2016-06-29 12:13:00 +0500
betsi.iarmolnik,walapytkamilahrf,Бетси,Иармолник,3,620000,2016-06-29 12:13:40 +0500
coloi.badartch,ksenka_97anton_eremenko,Колой,Бадарч,3,620000,2016-06-29 12:14:40 +0500
olevir.sagidulin,mepifala128sssds618,Олевир,Сагидулин,3,620000,2016-06-29 12:15:19 +0500
hantash.bar,irinkarevinaYnejev09,Бар,Ханташ,3,620000,2016-06-29 12:15:55 +0500
shubka.laodicka,annail22ladybobr,Лаодика,Щубка,3,620000,2016-06-29 12:16:39 +0500
fasovitch,mashutochka2008dalucardo,Заукийа,Фасович,3,620000,2016-06-29 12:17:20 +0500
obirek.leon-leopold,tred432ndfm3,Леон-леопольд,Обирек,3,620000,2016-06-29 12:18:04 +0500
bababeck.epikovsk,g40q5hj9qug8b0leha18fcsm,Бабабек,Эпиковск,3,620000,2016-06-29 12:18:43 +0500
mecheslaw-peter.yakubski,irn_irnabbasli_topcu,Мечеслав-петр,Якубски,3,620000,2016-06-29 12:19:22 +0500
fakitsyne.akinola,globtakharovadolomanovdeniska,Акинола,Факицынэ,3,620000,2016-06-29 12:20:13 +0500
fisa.khomchicheva,s8331928cslivkinaolga,Анфиса,Хомчичева,3,620000,2016-06-29 12:20:59 +0500
cabsnih,viktorx220lenom547,Анастасия-наталья,Кабсних,3,620000,2016-06-29 12:21:56 +0500
shahmaroff.salameya,noxchine4vasabi84,Саламея,Шахмаров,3,620000,2016-06-29 12:22:32 +0500
mavlekiev.nurmira,ajmrichojpmxrte53,Нурмира,Мавлекиев,3,620000,2016-06-29 12:23:04 +0500
shepetilnikova.nargis,asker161291tenrec3,Наргис,Щепетильникова,3,620000,2016-06-29 12:23:39 +0500
tavaryan.ambro,miles21QAZWSXEDC12345_0,Амбро,Таварян,3,620000,2016-06-29 12:24:20 +0500
shonikva.valtsiferoff,kusanna55matrodor,Шониква,Вальциферов,3,620000,2016-06-29 12:25:05 +0500
evrosenkova.netta,alina9dWYosolovevato_valery,Нэтта,Евросенкова,3,620000,2016-06-29 12:25:42 +0500
bazaroglo.axylu,dasha_sokolova02sverige2,Аксылу,Базарогло,3,620000,2016-06-29 12:26:42 +0500
fatinya.lupku,irok2505daimond251,Фатинья,Лупку,3,620000,2016-06-29 12:27:16 +0500
tsetsuk.alisie,vano3471Kukla_danser,Алисиэ,Цецук,3,620000,2016-06-29 12:27:50 +0500
darlina.ulybenko,rty0981elf6662008,Дарлина,Улыбенко,3,620000,2016-06-29 12:28:36 +0500
farkushak.gaolina,alex199796ctvrbyf8952,Гаолина,Фаркушак,3,620000,2016-06-29 12:29:17 +0500
zhaborinskaya.gulmirat,RDYAsanfirovo,Гульмират,Жаборинская,3,620000,2016-06-29 12:30:06 +0500
zabiula.obaidat,perevod2009Sergon_08,Забиула,Обайдат,3,620000,2016-06-29 12:30:51 +0500
padosen.patimat-zahra,kazachok889bajen36,Патимат-Захра,Падосен,3,620000,2016-06-29 12:31:25 +0500
nanda.zhamkotsyan,kulebjaka1mmbigmo231,Нанда,Жамкоцян,3,620000,2016-06-29 12:31:57 +0500
rejin.tzvilinev,volody54missannka,Реджин,Цвилинев,3,620000,2016-06-29 12:32:33 +0500
lambrou.imenei,maks7867mikeayley6,Именей,Ламброу,3,620000,2016-06-29 12:33:47 +0500
tamarskaya.orin,hatynesZverkov911,Орин,Тамарская,3,620000,2016-06-29 12:34:27 +0500
saitaeva.isniat,Saule_90_chazz208,Исният,Саитаева,3,620000,2016-06-29 12:35:11 +0500
rovnyagin.ahmajoh,qwertyu1233210AnastiaKononenko,Ахмаджох,Ровнягин,3,620000,2016-06-29 12:36:00 +0500
atuna.khaimovitch,surkovaolyaagnessa3,Атуна,Хаймович,3,620000,2016-06-29 12:37:00 +0500
emelyana.saitbaeff,vumibuci134dillysanus69,Емельяна,Саитбаев,3,620000,2016-06-29 12:37:34 +0500
nils.hamann,SahkaSirovabdxtyrj2006,Нильс,Хаманн,3,620000,2016-06-29 12:38:09 +0500
ravnushkina.sackiba,shev4enokqw4187,Сакиба,Равнушкина,3,620000,2016-06-29 12:38:47 +0500
garchenkov.biana,lenusik3077p4el2008,Биана,Гарченков,3,620000,2016-06-29 12:39:26 +0500
vasilian.darbimyan,candelacwpK001MB93RUS,Василиан,Дарбимян,3,620000,2016-06-29 12:40:06 +0500
bernadina.fandetsky,yulia290685Rokic,Бернадина,Фандецкий,3,620000,2016-06-29 12:40:44 +0500
esya.dammer,giftsiako_2078memoriak,Еся,Даммер,3,620000,2016-06-29 12:41:34 +0500
aita.gabrileyan,shamatvskajaehminal,Айта,Габрилеян,3,620000,2016-06-29 12:42:14 +0500
fahruzin.spevsipp,nataly_ip2004bagul02,Спевсипп,Фахрузин,3,620000,2016-06-29 12:42:58 +0500
ivinske,drapestoclosemilahska_1996,Евдения,Ивинске,3,620000,2016-06-29 12:43:44 +0500
mazruk.kalerina,Albert67Goldheatr,Калерина,Мазрук,3,620000,2016-06-29 12:44:24 +0500
evgilevsky.domin,evropawwwfunny3110,Домин,Евгилевский,3,620000,2016-06-29 12:45:07 +0500
tchakla.alfintina,orlira09kannai84,Алфинтина,Чакла,3,620000,2016-06-29 12:45:43 +0500
jakan.hanlar,ilonna1977kattt8807,Ханлар,Жакан,3,620000,2016-06-29 12:46:25 +0500
minodorja.shakulo,mb32192svetlaja15,Минодорья,Шакуло,3,620000,2016-06-29 12:47:25 +0500
edvizhes.zhazuli,glaffy1layne28,Эдвижес,Жазули,3,620000,2016-06-29 12:48:08 +0500
kornitsky.marita,h1kb026gkkjias2anaogurcov,Марита,Корницкий,3,620000,2016-06-29 12:49:08 +0500
lekerya.tadynko,sanya7_88alexena3007,Лекеря,Тадынко,3,620000,2016-06-29 12:49:42 +0500
kaznelson.budyona,c11xxx341Ciymvip4,Будёна,Казнельсон,3,620000,2016-06-29 12:50:26 +0500
ivanna-zinovia.kegian,ba20gi03ra67natashamarietta,Иванна-зиновия,Кегян,3,620000,2016-06-29 12:51:04 +0500
raitanen,SNI72007kankoshef,Адерми,Райтанен,3,620000,2016-06-29 12:51:44 +0500
delma.shipun,TiCyGST7domevid1234,Дельма,Щипун,3,620000,2016-06-29 12:52:18 +0500
kalimulla.navalihin,tugarina66loban92,Калимулла,Навалихин,3,620000,2016-06-29 12:52:58 +0500
jeltushko.libusha,anri527hjdyfz,Либуша,Желтушко,3,620000,2016-06-29 12:53:33 +0500
khilalia.iurchikova-gev,bbbggg678nechanna,Хилалия,Юрчикова-Гев,3,620000,2016-06-29 12:54:12 +0500
darabany,radonez098azwia,Текля-мария,Дарабаны,3,620000,2016-06-29 12:54:51 +0500
jeinina.uitli,rezervsnabdashutka9917,Джэйнина,Уитли,3,620000,2016-06-29 12:55:32 +0500
netuzhinnina,mazolga2011antsygina_kate,Апраска,Нетужиннина,3,620000,2016-06-29 12:56:19 +0500
yashchnscki.vikta,mastervasylDIALOG755,Викта,Яшчнски,3,620000,2016-06-29 12:57:00 +0500
zagluhinskaya,sinaaakirinachka8878,Дорти,Заглухинская,3,620000,2016-06-29 12:57:39 +0500
katalin.laden,jmp1clnfteqymoneba3741,Каталин,Ладен,3,620000,2016-06-29 12:58:18 +0500
tristi.gaish,rakatovakaterina_doo,Тристи,Гаиш,3,620000,2016-06-29 12:58:56 +0500
irina-yaroslava2017,viylalfa127704,Ирина-ярослава,Угрецов,3,620000,2016-06-29 13:00:03 +0500
goar.kabija,Temk2012Lilechka8,Гоар,Кабиджа,3,620000,2016-06-29 13:00:44 +0500
vaptos.barv,tatiana_gavACID_84,Ваптос,Барв,3,620000,2016-06-29 13:01:27 +0500
sagatov.mufliha,Killar62bnbbnn,Муфлиха,Сагатов,3,620000,2016-06-29 13:02:13 +0500
palsolog.albida,vitaly2382gerc_sz,Албида,Палсолог,3,620000,2016-06-29 13:03:05 +0500
pyachilia2017,larsem80dimaking215,Пячилия,Шаймуратова,3,620000,2016-06-29 13:03:49 +0500
zawaganov,akrinioxcam,Алыпкул,Заваганов,3,620000,2016-06-29 13:04:28 +0500
kanit.utyuzhnikov,valek1963p3399r,Канит,Утюжников,3,620000,2016-06-29 13:05:21 +0500
nura.epatov,lizzilaxnnaattiikk29,Нура,Эпатов,3,620000,2016-06-29 13:05:56 +0500
zaraf.feborchuk,rhjtehoksana260880,Зараф,Феборчук,3,620000,2016-06-29 13:06:46 +0500
dovidenko.pozhar,huihuihui1101jakupova_a,Пожар,Довиденко,3,620000,2016-06-29 13:07:21 +0500
yashchnko.liopatra,Trish31toha_rigiy,Лиопатра,Яшчнко,3,620000,2016-06-29 13:08:10 +0500
shegilov,z0mbiw12krasniankou,Клайделл,Щегилов,3,620000,2016-06-29 13:08:49 +0500
oboyanchev.amush,s212svicacuc,Амуш,Обоянчев,3,620000,2016-06-29 13:10:05 +0500
yarmoshin.zhdamir,taneaskycoka,Ждамир,Ярмошин,3,620000,2016-06-29 13:10:44 +0500
dambaev.alledia,ibetmenlcn87,Алледия,Дамбаев,3,620000,2016-06-29 13:11:27 +0500
yashurinscki.asnik,mikrozlogofezoda298,Асник,Яшурински,3,620000,2016-06-29 13:12:11 +0500
razvadovskaya.anna-borislava,Amid66b15987530,Анна-борислава,Развадовская,3,620000,2016-06-29 13:13:42 +0500
zharogo.lidiana,lilrfawc14pashveronika2011,Лидиана,Жарого,3,620000,2016-06-29 13:14:16 +0500
iulgovskaya,fishhook1repka0502,Гельсария,Юльговская,3,620000,2016-06-29 13:15:10 +0500
monda.lanavoi,marthishkseverus050,Монда,Ланавой,3,620000,2016-06-29 13:15:57 +0500
razukov.savtepi,avagrace1212BleachD666,Савтепи,Разуков,3,620000,2016-06-29 13:16:31 +0500
iolana-maria2016,nikitashamkovelvikkam,Иолана-мария,Ёзефовичи,3,620000,2016-06-29 13:17:32 +0500
gajdatch.pavel-leonty,sylvestersAserova,Павел-леонтий,Гайдач,3,620000,2016-06-29 13:18:16 +0500
tomiris.ivashurov,almazova82kryap,Томирис,Ивашуров,3,620000,2016-06-29 13:18:58 +0500
yasnogir,noah_gosselinsetimi,Орися-валерия,Ясногир,3,620000,2016-06-29 13:19:33 +0500
ivardov,beeiloveutvoikaliningrad,Аль-шаер,Ивардов,3,620000,2016-06-29 13:20:13 +0500
vepho.navtanyuk,andrei_791krugmg55,Вепхо,Навтанюк,3,620000,2016-06-29 13:20:52 +0500
isadora.labatin,avis_insanus15Attention001,Исадора,Лабатин,3,620000,2016-06-29 13:21:44 +0500
mishenin.nixon,kykolca55555Dashutik9211658733,Никсон,Мищенин,3,620000,2016-06-29 13:22:25 +0500
betya.faneev,fray0078papanyat5,Бетя,Фанеев,3,620000,2016-06-29 13:23:03 +0500
yurzakova,vitaliymsigor1_68,Кристиане,Юрзакова,3,620000,2016-06-29 13:23:55 +0500
naberkutniy.yavor,zhulepovv1b7i8p5,Явор,Наберкутный,3,620000,2016-06-29 13:25:02 +0500
kortnei2016,bafilpSer4141,Кортней,Евсеянкова,3,620000,2016-06-29 13:25:54 +0500
yashchnskaya,poik998kozlik92009,Ждана,Яшчнская,3,620000,2016-06-29 13:26:38 +0500
pavlinko.yadwiga-tereza,Oksana19941611nifle,Ядвига-тереза,Павлинко,3,620000,2016-06-29 13:27:23 +0500
panasya.raisa,mak8128ryjomilu380,Панася,Раиса,3,620000,2016-06-29 13:28:01 +0500
shebena.ellisa,Kristi230197squirr3ll,Эллиса,Щебена,3,620000,2016-06-29 13:29:11 +0500
metlenyuk.ninelya,kotja270283VASYA2011,Нинеля,Метленюк,3,620000,2016-06-29 13:29:46 +0500
magazeishikov.elvianna,anna_baikjakor2a,Эльвианна,Магазейщиков,3,620000,2016-06-29 13:30:36 +0500
nagny.fidana,lero4kasfld5Xa2reDw,Фидана,Нагний,3,620000,2016-06-29 13:31:32 +0500
gustawa.pakomiy,heatehrsel1vovahkj,Густава,Пакомый,3,620000,2016-06-29 13:32:19 +0500
oki.maioru,xiaoxiaLeinveber79,Оки,Маиору,3,620000,2016-06-29 13:33:11 +0500
molodchik.nekulaj,mazaxaka5566Liliana81,Некулай,Молодчик,3,620000,2016-06-29 13:34:12 +0500
selivirov.shahabyz,chisty2006dimon43250,Шахабыз,Селивиров,3,620000,2016-06-29 13:34:57 +0500
tchandren,limpopohbvalexs123alexs,Эбби,Чандрен,3,620000,2016-06-29 13:35:42 +0500
palinaria.gelfinshtein,tulan7171madmen8,Палинария,Гельфинштейн,3,620000,2016-06-29 13:36:27 +0500
nelentina.ezhelina,tarasbulba_97Alik_uralsk,Нелентина,Ежелина,3,620000,2016-06-29 13:37:06 +0500
erdonov.kerol,abbubxonksH5jOBS5,Кэрол,Эрдонов,3,620000,2016-06-29 13:37:52 +0500
shajdulina.naziya,stepanovka1986bychok1989,Назия,Шайдулина,3,620000,2016-06-29 13:38:43 +0500
lalabek.savarskoff,hactena_27danhottie96,Лалабек,Саварсков,3,620000,2016-06-29 13:39:37 +0500
babushkova.megi,ElenaUnis_87larc666,Меги,Бабушкова,3,620000,2016-06-29 13:40:48 +0500
ravvin.curgambek,andehpvpipetkaganj,Кургамбек,Раввин,3,620000,2016-06-29 13:41:33 +0500
ummugani.egoshenko,Matveiboysy2HP7ijL,Уммугани,Егощенко,3,620000,2016-06-29 13:42:06 +0500
rabazhi.sandria,nikon130670canonMAPKEJI,Сандрия,Рабажи,3,620000,2016-06-29 13:42:51 +0500
yaminskaya.kalistina,edvard0011khan2662,Калистина,Яминская,3,620000,2016-06-29 13:43:48 +0500
yushenkov.madest,h2o1991sviridenkotanya,Мадэст,Ющенков,3,620000,2016-06-29 13:45:04 +0500
amfilafy2017,Malininka1981vvvcccfgf,Амфилафий,Рудая-Подвешинская,3,620000,2016-06-29 13:45:38 +0500
ioana.tsanditser,gtneirjd_1c1a2m3o4e5,Иоана,Цандицер,3,620000,2016-06-29 13:46:27 +0500
valttser,sweet_marder_dollsnake_xxx_007,Минле,Валтцер,3,620000,2016-06-29 13:47:06 +0500
tselger,gushcin08rusC45Gep,Акпар Мамед,Цельгер,3,620000,2016-06-29 13:47:46 +0500
telash.damahin,valeraleskomailgold,Телаш,Дамахин,3,620000,2016-06-29 13:48:54 +0500
ednyagin,vecznftokiohotelhumanoid483,Януш-иосиф,Еднягин,3,620000,2016-06-29 13:49:35 +0500
ermuratskaya.demazy,kon_irk77vinkuri,Демазий,Эрмуратская,3,620000,2016-06-29 13:50:19 +0500
mirranda.vavilov,MNL_89naxalovsk,Мирранда,Вавилов,3,620000,2016-06-29 13:50:57 +0500
zavedej,garnovanMouse290787,Ексиния,Заведей,3,620000,2016-06-29 13:51:28 +0500
svyatlana2016,integralovnutsupop,Святлана,Вайдаловская,3,620000,2016-06-29 13:52:17 +0500
oskana.magamed,Kopylova_marina88culebra26,Оскана,Магамед,3,620000,2016-06-29 13:53:06 +0500
martyukha.lavenkoff,RodionhushtovKNIAZ220589,Мартюха,Лавенков,3,620000,2016-06-29 13:54:02 +0500
talachkene.sudzuki,elena_shuverovaalinko_centr,Судзуки,Талачкене,3,620000,2016-06-29 13:54:42 +0500
tabakerov.frents,gapin73igolceva,Фрэнц,Табакеров,3,620000,2016-06-29 13:55:29 +0500
albus.talalanchenko,mukulay87sana503princess,Албус,Талаланченко,3,620000,2016-06-29 13:56:04 +0500
zhalnil.dahar,udacha1881mi_tha90,Дахар,Жалнил,3,620000,2016-06-29 13:56:48 +0500
shalimanov.zhupargali,fkmnthyfnbdf6zhanna2403,Жупаргали,Шалиманов,3,620000,2016-06-29 13:57:23 +0500
zavezhdei.nargila,tanyagladushkaegarin,Наргила,Завеждей,3,620000,2016-06-29 13:57:58 +0500
ahaz2017,Kukla_29savras_sumy,Ахаз,Ейхенголц,3,620000,2016-06-29 13:58:32 +0500
aburjania.mukodes,zuflikk2010peyebrow26,Мукодес,Абурджания,3,620000,2016-06-29 13:59:22 +0500
gabrel.zeus,bobi_t94galagl1,Зеус,Габрель,3,620000,2016-06-29 14:00:02 +0500
tahtar-ali2017,pascal4vitek_o,Тахтар-али,Цетиев,3,620000,2016-06-29 14:00:50 +0500
serik.dantitch,lere53gfhdhfdhgfdhfhdg,Серик,Дантич,3,620000,2016-06-29 14:01:47 +0500
manokbei.tallula,ZakBuharinvovaslon,Таллула,Манокбей,3,620000,2016-06-29 14:02:47 +0500
evtishenko.svanhilda,vitalik_pavlovskiidsfsd56fds1,Сванхилда,Евтищенко,3,620000,2016-06-29 14:03:30 +0500
alten.yan-tzin-chan,tarandanielsupermorfik,Алтен,Ян-Цин-Чан,3,620000,2016-06-29 14:04:13 +0500
irma-maria.bazhakova,danil09997Tsherbinin,Ирма-мария,Бажакова,3,620000,2016-06-29 14:04:54 +0500
odelevskaja.tamma,kadir44evgeniypirogov,Тамма,Оделевская,3,620000,2016-06-29 14:05:28 +0500
ralif.saidkasimov,trophimbessinkornaseon,Ралиф,Саидкасимов,3,620000,2016-06-29 14:06:07 +0500
abusaria,azali23102ttjngrbchv,Абдул-булат,Абусария,3,620000,2016-06-29 14:06:57 +0500
haliev.soiuza,wulfy95sceh560real007,Союза,Халиев,3,620000,2016-06-29 14:08:32 +0500
zagina.larika,lyugenc4wq7eux,Ларика,Загина,3,620000,2016-06-29 14:09:32 +0500
veniolina.kabakina,imjdanx7jiiznfsrusssusssi,Вениолина,Кабакина,3,620000,2016-06-29 14:10:12 +0500
yadigiar.yanushevichus,vera198402ksyu3333,Ядигяр,Янушевичус,3,620000,2016-06-29 14:11:00 +0500
raida.davydovaa,fire_daweflinders4,Раида,Давыдоваа,3,620000,2016-06-29 14:11:40 +0500
guntis.abanshin,lomov_svdrjynfrnt1000,Гунтис,Абаньшин,3,620000,2016-06-29 14:12:26 +0500
iahnis.jenevra,JackHosen9sbmOLSCCOH1,Женевра,Иахнис,3,620000,2016-06-29 14:13:07 +0500
aniko.tsevakova,Capko_aleksandrcgfqlthvty2003,Анико,Цевакова,3,620000,2016-06-29 14:13:47 +0500
kladya.udovnachenko,shaye5ebertran,Кладия,Удовначенко,3,620000,2016-06-29 14:14:27 +0500
talmazaki,polivanova_le7135281,Ева-янина,Талмазаки,3,620000,2016-06-29 14:15:31 +0500
yuwanaly.nazipov,ericamladshayazfalkin,Юваналий,Назипов,3,620000,2016-06-29 14:16:11 +0500
fevrusa.egozarova,kisynychkafeskort,Февруса,Егозарова,3,620000,2016-06-29 14:16:49 +0500
aglya.pavlovscki,SzJpXnFhYgoPstovnata,Агля,Павловскки,3,620000,2016-06-29 14:17:46 +0500
badya.alsu,biotempdiablo8866,Алсу,Бадья,3,620000,2016-06-29 14:18:29 +0500
iashpolski.kimi,aqope2dmisbistrii1980,Кими,Иашполски,3,620000,2016-06-29 14:19:03 +0500
jangur.dildaria,muratow_swetyfl22n70,Дилдария,Янгур,3,620000,2016-06-29 14:19:43 +0500
svirchinckov,konstantaoglory_3,Анки,Свирчинков,3,620000,2016-06-29 14:20:26 +0500
rennady.yaaakub,karld2005xGz8S2yyf,Реннадий,Яаакуб,3,620000,2016-06-29 14:21:01 +0500
hamentauskas,s_kostarevYoungPatriot,Джыргал,Хаментаускас,3,620000,2016-06-29 14:21:41 +0500
rewolyuta.uzhkova,poletaevabisova2011petja1000,Революта,Ужкова,3,620000,2016-06-29 14:22:15 +0500
kerkote,kakdeldotafan1995,Яхшибек,Кэркотэ,3,620000,2016-06-29 14:23:01 +0500
pamfily.habibull,reginald_perrinrtdrtdtduuiir56ud,Памфилий,Хабибулл,3,620000,2016-06-29 14:23:41 +0500
zhelendkovsky.jihan,zEMOxUXYzOju54goshaphenis,Жихан,Желендковский,3,620000,2016-06-29 14:24:19 +0500
harita.barberosha,hacker1949ogurchik1986,Харита,Барбэроша,3,620000,2016-06-29 14:25:15 +0500
zavolod.mavlikai,hyuufyuguvbv766,Мавликай,Заволод,3,620000,2016-06-29 14:25:53 +0500
sagadeev.maash,pobeditel31983g3ZJF0wb,Мааш,Сагадеев,3,620000,2016-06-29 14:26:39 +0500
ikramat.izhnin,veronika_g_1991mpacron,Икрамат,Ижнин,3,620000,2016-06-29 14:27:24 +0500
auva.ignatuhin,b1890921songtu,Аува,Игнатухин,3,620000,2016-06-29 14:28:05 +0500
zutner.krispi,kvintorar618Dishyk,Криспи,Зутнер,3,620000,2016-06-29 14:29:30 +0500
ahat.tzepusheloff,katynka09abrecabrec,Ахать,Цепушелов,3,620000,2016-06-29 14:30:14 +0500
vaiser.goryain,Ranil1992kukuku1,Горяин,Вайсер,3,620000,2016-06-29 14:30:58 +0500
dobryana.zabozhan,ygn6bhntmiwnfmwm02,Добряна,Забожан,3,620000,2016-06-29 14:31:33 +0500
vaizabad,iluha_viptarik214521210,Гаянна,Вайзабад,3,620000,2016-06-29 14:32:18 +0500
tcharner,mggkx7valyasosunova,Розалея,Чарнер,3,620000,2016-06-29 14:32:52 +0500
fab.raitsiuk,pediklolkadgonnicolson,Фаб,Райцюк,3,620000,2016-06-29 14:33:36 +0500
yarkiw,f2d745fdccq2750426,Сейда,Яркив,3,620000,2016-06-29 14:34:18 +0500
magdalka.uninskaya,eapresstan_shun,Магдалка,Унинская,3,620000,2016-06-29 14:34:57 +0500
deishi.yalinsky,vivladdq194iska008,Дэйши,Ялинский,3,620000,2016-06-29 14:35:50 +0500
avsenty.oborotch,DavIWoHI73dxmstr4,Авсентий,Обороч,3,620000,2016-06-29 14:36:42 +0500
shagabudtdinov,WERNO123but89624160760god,Галина-татьяна,Шагабудтдинов,3,620000,2016-06-29 14:37:16 +0500
smilovsky.algis,zezvosliand147,Алгис,Смиловский,3,620000,2016-06-29 14:37:56 +0500
nazarina.iochak,msu9t6wwneDecl999,Назарина,Йочак,3,620000,2016-06-29 14:38:38 +0500
iraklida.havritsia,katerinka_29_Olzikmasykostenco,Ираклида,Хавриця,3,620000,2016-06-29 14:39:17 +0500
pollo.laisania,vazka777VikUlik2O,Лайсания,Полло,3,620000,2016-06-29 14:39:51 +0500
sabkanyuk,Ilnickaya70cds6,Полли,Сабканюк,3,620000,2016-06-29 14:40:32 +0500
atella.sabriev,worldwide2Pas1cOR,Ателла,Сабриев,3,620000,2016-06-29 14:41:05 +0500
sekletya.haenkovsky,ladolatakci,Секлетия,Хаенковский,3,620000,2016-06-29 14:41:38 +0500
lagazhan.sevana,Black_White777anton92fishker,Севана,Лагажан,3,620000,2016-06-29 14:42:17 +0500
abdelhamid.serafina,xenia_kovewokena150,Сэрафина,Абдельхамид,3,620000,2016-06-29 14:42:56 +0500
elunina.sofyana,smariyasZhuchoks,Софьяна,Элунина,3,620000,2016-06-29 14:43:47 +0500
abduvili.moskaliichik,ksunjka89SAM_551,Абдувили,Москалийчик,3,620000,2016-06-29 14:44:22 +0500
yankol.patvakan,affoxd2nd4iAnuto4ka2010ANNA,Патвакан,Янкол,3,620000,2016-06-29 14:45:07 +0500
zavortniy.karamfil,alexrutkowskyi42156niu,Карамфил,Завортный,3,620000,2016-06-29 14:45:44 +0500
nalastovsk,lfm39843750dhPolykovgleb,Адельфат,Наластовск,3,620000,2016-06-29 14:46:48 +0500
zagry.arulla,picdemon2000saliliuchca,Арулла,Загрий,3,620000,2016-06-29 14:47:26 +0500
fotina.halalova,alinna2015A589746,Фотина,Халалова,3,620000,2016-06-29 14:48:07 +0500
yushinskij,nastka_89zhen41k,Зольфидия,Юшинский,3,620000,2016-06-29 14:49:06 +0500
brinda.tamoschevsky,ANUTKA0097klenkova_elya,Бринда,Тамошевский,3,620000,2016-06-29 14:49:42 +0500
shambur.adel,zdbsfnuShasmin_20,Адел,Щамбур,3,620000,2016-06-29 14:50:22 +0500
yasinchack.feklis,vk_151103289ivanrep,Феклис,Ясинчак,3,620000,2016-06-29 14:51:11 +0500
raer.evgunia,jessicacohnEvGenPoppy,Евгуния,Раер,3,620000,2016-06-29 14:52:06 +0500
feletsia.uinters,maruk003robert232,Фелеция,Уинтерс,3,620000,2016-06-29 14:52:41 +0500
mya4insky,vk_5943376fialochka11,Касполат,Мячинский,3,620000,2016-06-29 14:53:25 +0500
habloush.stefan-volodimir,katybaz1uhbifbdfyfynjy888,Стефан-володимир,Хаблоуш,3,620000,2016-06-29 14:53:57 +0500
kadebina.daniella,qeriqerpasswords_lj,Даниэлла,Кадебина,3,620000,2016-06-29 14:54:59 +0500
shetrashishin.sharterika,avotorstepa794,Шартерика,Шетрашишин,3,620000,2016-06-29 14:55:38 +0500
boleslava.ivaskova,hiromirocksteimurov_Alman,Болеслава,Иваскова,3,620000,2016-06-29 14:56:18 +0500
zagorkov.stepanina,Vogalyaa89105229760,Степанина,Загорков,3,620000,2016-06-29 14:57:00 +0500
ulyania2017,agayevaulviyadarina_volk,Уляния,Эвдокимовна,3,620000,2016-06-29 14:57:35 +0500
yurtsun.afromei,matisulyayckow,Афромей,Юрцунь,3,620000,2016-06-29 14:58:24 +0500
vadi.abduldaimova,chrisriosVedenina_Olga,Вади,Абдулдаимова,3,620000,2016-06-29 14:59:12 +0500
lilina.fagorov,saxtonktdaric2011,Лилина,Фагоров,3,620000,2016-06-29 14:59:56 +0500
jemilya.emanov,willdemps47gushchin_ura,Джемиля,Эманов,3,620000,2016-06-29 15:00:34 +0500
altsesa.yachikov,Open74mixlizaorg,Альцеса,Ячиков,3,620000,2016-06-29 15:01:28 +0500
haevskaya.islambabul,slesary25birintzev,Ислам Бабуль,Хаевская,3,620000,2016-06-29 15:02:16 +0500
shibl.blyumenfeld,Syava200000veneraIrHSOsuhanova,Шибль,Блюменфельд,3,620000,2016-06-29 15:02:58 +0500
halskov.nurzat,Strotienkokirdanj,Нурзат,Халсков,3,620000,2016-06-29 15:03:37 +0500
halahola.nafisya,zorjnkabbHibahaba1234,Нафися,Халахола,3,620000,2016-06-29 15:04:18 +0500
ivashnev.vagram,ffsdhjsfF_clubVoctok,Ваграм,Ивашнев,3,620000,2016-06-29 15:04:55 +0500
vardkes.nagubnov,tiourinaelenaanatslobod,Вардкес,Нагубнов,3,620000,2016-06-29 15:05:35 +0500
olgia.bavbekov,Sh4yps88vkplayer2,Ольгия,Бавбеков,3,620000,2016-06-29 15:06:09 +0500
abdalfatah.fanboim,shvey_nataliaidinahuiidinahui,Абд Ал Фатах,Фанбойм,3,620000,2016-06-29 15:06:49 +0500
sarraf.takatch,mityasafronowzheka48rus,Сарраф,Такач,3,620000,2016-06-29 15:07:37 +0500
daidre.havavkalo,yana_prokhorenkoyuluyk,Дайдре,Хававкало,3,620000,2016-06-29 15:08:23 +0500
subrajoti,bryar1mansimov_ms,Чинбиль,Субраджоти,3,620000,2016-06-29 15:09:02 +0500
sarlyk.iekin,kypol8ka290989237034,Сарлык,Иекин,3,620000,2016-06-29 15:09:47 +0500
nabralko.ahmyat,katerinyakovleva2009thabet1212,Ахмят,Набралко,3,620000,2016-06-29 15:10:26 +0500
yudmanova.bianna,gelsportnazmdeh,Бианна,Юдманова,3,620000,2016-06-29 15:11:16 +0500
hamra.ubrashaev,edyard2006zotovaty,Хамра,Убрашаев,3,620000,2016-06-29 15:11:50 +0500
hadjimuratova.radiana,xnaps84figa66,Радиана,Хаджимуратова,3,620000,2016-06-29 15:12:37 +0500
helina.kadilo,solo_sakhGooglj,Хелина,Кадило,3,620000,2016-06-29 15:13:20 +0500
halihodera.almita,Karina240810andry_smirnov,Алмита,Халиходера,3,620000,2016-06-29 15:14:12 +0500
dulyanaz.labarovsky,pipbipvk_114553041,Дульяназ,Лабаровский,3,620000,2016-06-29 15:14:46 +0500
ladan-gonchar,myix_9426_pemuushere2,Гулжихан,Ладан-Гончар,3,620000,2016-06-29 15:16:05 +0500
veisal.davadoff,ctqrfborinorin1,Вейсал,Давадов,3,620000,2016-06-29 15:18:50 +0500
havav.aminya-han,cpn080119781kuluckokkhristja,Аминя-хан,Хавав,3,620000,2016-06-29 15:19:36 +0500
rabinkovskij,mishbox1fateevanasha,Мегара,Рабинковский,3,620000,2016-06-29 15:20:09 +0500
veroslava.kireenko,smileyanchik95pjgjdggjaa,Верослава,Киреенко,3,620000,2016-06-29 15:21:01 +0500
yavitch.zhanarys,nigmanvloxax85,Жанарыс,Явич,3,620000,2016-06-29 15:21:40 +0500
unerowa,gaby142009pankovaky,Люба-христина,Унерова,3,620000,2016-06-29 15:22:28 +0500
duminicka.savoevskij,nuiffyz63atkoleg,Думиника,Савоевский,3,620000,2016-06-29 15:23:19 +0500
zefira.ueiko,katrin12101985bgabriele,Зефира,Уэйко,3,620000,2016-06-29 15:24:14 +0500
dilus.badyurov,aizekkk0831loginova7772010,Дилус,Бадюров,3,620000,2016-06-29 15:25:03 +0500
lalia.paviuk,khrystynamakarKLO71204,Лалия,Павюк,3,620000,2016-06-29 15:25:53 +0500
domoslav.blyumis,ChernNvmalaja15,Домослав,Блюмис,3,620000,2016-06-29 15:26:37 +0500
talmira.yuzhad,bginoskaBANKIR7778,Тальмира,Южад,3,620000,2016-06-29 15:27:11 +0500
danuta-olga.talpei,irinasannikova2010t2849323,Данута-ольга,Талпей,3,620000,2016-06-29 15:27:58 +0500
yatzyavichyute,danil22101999Ira10101995,Гулдана,Яцявичюте,3,620000,2016-06-29 15:28:37 +0500
adella.mazhensky,vova23121965blondinka_72,Адэлла,Маженский,3,620000,2016-06-29 15:29:16 +0500
poginaiko.visol,buzzy20iriselista,Висол,Погинайко,3,620000,2016-06-29 15:29:55 +0500
helge.ezrin,gaz_arsutru71tzguhatte,Хельге,Эзрин,3,620000,2016-06-29 15:30:44 +0500
abdul.jexon,gjhfmghmgmihail_toporov2010,Джэксон,Абдул,3,620000,2016-06-29 15:31:39 +0500
aubina.danlchenko,fractalixillness0,Аубина,Данльченко,3,620000,2016-06-29 15:32:18 +0500
neisbas.arisa,JVnIbOfmarygirl_06,Ариса,Нейсбас,3,620000,2016-06-29 15:32:52 +0500
tamanov.tonik,shsthhjyjyjgyjdyj2kjdfgiodghhgg,Тоник,Таманов,3,620000,2016-06-29 15:33:46 +0500
zinovy.shyawchishin,pykrete111skuggismart7,Зиновий,Шявчишин,3,620000,2016-06-29 15:34:21 +0500
gedranta.jyulika,makovcvetttkrasota7777,Гедранта,Джюлика,3,620000,2016-06-29 15:34:59 +0500
ceila.uokov,shcheglov1979NINA2505,Кэйла,Уоков,3,620000,2016-06-29 15:35:38 +0500
shavner,benji690anyaulito4ka,Хубруя,Шавнер,3,620000,2016-06-29 15:36:19 +0500
balzhan.elishina,gladenky14Assa86,Балжан,Елишина,3,620000,2016-06-29 15:36:55 +0500
babohidtse,zay2108BURGUI_83,Палазия,Бабохидце,3,620000,2016-06-29 15:37:43 +0500
shavlinova.gajar,folismitnosaj1,Гажар,Шавлинова,3,620000,2016-06-29 15:38:24 +0500
ivasyck.rajhan,ari777arikr_mexx,Райхан,Ивасык,3,620000,2016-06-29 15:39:46 +0500
yanak.yustincka,filin_rvnarmatovttuwxy,Юстинка,Янак,3,620000,2016-06-29 15:40:36 +0500
